[
  {
    "id": "MF0001",
    "link": "https://twitter.com/almasirah/status/641294779121209344",
    "platform": "Tweet"
  },
  {
    "id": "MF0002",
    "link": "https://twitter.com/Almseernewss/status/618693316012580864",
    "platform": "Tweet"
  },
  {
    "id": "MF0002",
    "link": "https://twitter.com/hashmi_iman/status/641588912432021504",
    "platform": "Tweet"
  },
  {
    "id": "MF0002",
    "link": "https://twitter.com/Khwlan_Sana/status/777876399336153088",
    "platform": "Tweet"
  },
  {
    "id": "MF0002",
    "link": "https://twitter.com/RTarabic/status/641747959869124608",
    "platform": "Tweet"
  },
  {
    "id": "MF0002",
    "link": "https://twitter.com/Tribuneofyemen/status/641295510352080896",
    "platform": "Tweet"
  },
  {
    "id": "MF0002",
    "link": "https://twitter.com/YemenTodayTV1/status/618887562162143232",
    "platform": "Tweet"
  },
  {
    "id": "MF0001",
    "link": "https://www.youtube.com/watch?v=LFp5E6mouH0",
    "platform": "Video"
  },
  {
    "id": "MF0003",
    "link": "https://twitter.com/AlsharaiahYemen/status/701147943286521856",
    "platform": "Tweet"
  },
  {
    "id": "MF0003",
    "link": "https://twitter.com/alwazirbwthinh/status/701503996909985792",
    "platform": "Tweet"
  },
  {
    "id": "MF0003",
    "link": "https://twitter.com/habibYEMEN/status/701469064355565569",
    "platform": "Tweet"
  },
  {
    "id": "MF0003",
    "link": "https://twitter.com/QawemOrg/status/701171820653752320",
    "platform": "Tweet"
  },
  {
    "id": "MF0003",
    "link": "https://twitter.com/Saadahnews_twit/status/701299919248826373",
    "platform": "Tweet"
  },
  {
    "id": "MF0003",
    "link": "https://twitter.com/saraky2020/status/701160042226122752",
    "platform": "Tweet"
  },
  {
    "id": "MF0003",
    "link": "https://twitter.com/t_YNnews/status/701146978286174208",
    "platform": "Tweet"
  },
  {
    "id": "MF0003",
    "link": "https://twitter.com/thelinkyemen/status/701303822140899329",
    "platform": "Tweet"
  },
  {
    "id": "MF0003",
    "link": "https://twitter.com/truth_detection/status/701150693399392259",
    "platform": "Tweet"
  },
  {
    "id": "MF0003",
    "link": "https://www.youtube.com/watch?v=H_ppUZX5RJI",
    "platform": "Video"
  },
  {
    "id": "MF0004",
    "link": "https://twitter.com/alharf28_28/status/1121428417226989568",
    "platform": "Tweet"
  },
  {
    "id": "MF0004",
    "link": "https://twitter.com/AlsariaNat/status/1121712394626007045",
    "platform": "Tweet"
  },
  {
    "id": "MF0004",
    "link": "https://twitter.com/ammaralsharabi2/status/1121424534458990592",
    "platform": "Tweet"
  },
  {
    "id": "MF0004",
    "link": "https://twitter.com/Fatinhom/status/1121427052962488326",
    "platform": "Tweet"
  },
  {
    "id": "MF0004",
    "link": "https://twitter.com/shathaalmeklafy/status/1121423292114432001",
    "platform": "Tweet"
  },
  {
    "id": "MF0004",
    "link": "https://twitter.com/suhailchannel/status/1121472752605638661",
    "platform": "Tweet"
  },
  {
    "id": "MF0004",
    "link": "https://twitter.com/Taiz__times/status/1121496144792707072",
    "platform": "Tweet"
  },
  {
    "id": "MF0004",
    "link": "https://www.youtube.com/watch?v=R7ZILSvT4zU",
    "platform": "Video"
  },
  {
    "id": "MF0004",
    "link": "https://www.youtube.com/watch?v=TT5Hz6HoCI8",
    "platform": "Video"
  },
  {
    "id": "MF0005",
    "link": "https://twitter.com/ansar_allh19/status/767772165743714308",
    "platform": "Tweet"
  },
  {
    "id": "MF0005",
    "link": "https://twitter.com/BelqeesTV/status/766328524777123841",
    "platform": "Tweet"
  },
  {
    "id": "MF0005",
    "link": "https://twitter.com/Far88Fares/status/765321692298285060",
    "platform": "Tweet"
  },
  {
    "id": "MF0005",
    "link": "https://twitter.com/MasirahTV/status/766366477440131072",
    "platform": "Tweet"
  },
  {
    "id": "MF0005",
    "link": "https://twitter.com/msf_yemen/status/766325985562267648",
    "platform": "Tweet"
  },
  {
    "id": "MF0005",
    "link": "https://twitter.com/NoonNona2/status/766348020019503104",
    "platform": "Tweet"
  },
  {
    "id": "MF0005",
    "link": "https://twitter.com/WHOYemen/status/765294794872594434",
    "platform": "Tweet"
  },
  {
    "id": "MF0005",
    "link": "https://www.youtube.com/watch?v=B2HSRytvRvo",
    "platform": "Video"
  },
  {
    "id": "MF0006",
    "link": "https://twitter.com/ahmedhgpfhvd/status/729576544125988865",
    "platform": "Tweet"
  },
  {
    "id": "MF0006",
    "link": "https://twitter.com/CivicCoalition/status/729750860520169472",
    "platform": "Tweet"
  },
  {
    "id": "MF0006",
    "link": "https://twitter.com/hashmi_iman/status/729748479413784576",
    "platform": "Tweet"
  },
  {
    "id": "MF0006",
    "link": "https://twitter.com/im_rwhy26yemen/status/729695446550126593",
    "platform": "Tweet"
  },
  {
    "id": "MF0006",
    "link": "https://twitter.com/nalradae/status/729645860963950592",
    "platform": "Tweet"
  },
  {
    "id": "MF0006",
    "link": "https://twitter.com/The_H16/status/729567152882233344",
    "platform": "Tweet"
  },
  {
    "id": "MF0006",
    "link": "https://twitter.com/YemeniRev/status/729569911937323008",
    "platform": "Tweet"
  },
  {
    "id": "MF0006",
    "link": "https://www.youtube.com/watch?v=wDsAIk6u66A",
    "platform": "Video"
  },
  {
    "id": "MF0007",
    "link": "https://twitter.com/aalsalami/status/1113499358920683521",
    "platform": "Tweet"
  },
  {
    "id": "MF0007",
    "link": "https://twitter.com/AlThaer_com/status/1111367761047900160",
    "platform": "Tweet"
  },
  {
    "id": "MF0007",
    "link": "https://twitter.com/BelqeesTV/status/1111505146012450816",
    "platform": "Tweet"
  },
  {
    "id": "MF0007",
    "link": "https://twitter.com/IsmailHammad20/status/1111359977984274432",
    "platform": "Tweet"
  },
  {
    "id": "MF0007",
    "link": "https://twitter.com/nabaatv/status/1112718278579965952",
    "platform": "Tweet"
  },
  {
    "id": "MF0007",
    "link": "https://twitter.com/nbntweets/status/1111368317099479052",
    "platform": "Tweet"
  },
  {
    "id": "MF0007",
    "link": "https://twitter.com/o7JhK3G29NXMNQj/status/1111392156797698048",
    "platform": "Tweet"
  },
  {
    "id": "MF0007",
    "link": "https://www.youtube.com/watch?v=-NSaNjRAShc",
    "platform": "Video"
  },
  {
    "id": "MF0007",
    "link": "https://www.youtube.com/watch?v=2L2AzvsShg4",
    "platform": "Video"
  },
  {
    "id": "MF0007",
    "link": "https://www.youtube.com/watch?v=aMsjraBGB8U",
    "platform": "Video"
  },
  {
    "id": "MF0007",
    "link": "https://www.youtube.com/watch?v=BpenKYuLSUk",
    "platform": "Video"
  },
  {
    "id": "MF0007",
    "link": "https://www.youtube.com/watch?v=g65XfRL23Kw",
    "platform": "Video"
  },
  {
    "id": "MF0007",
    "link": "https://www.youtube.com/watch?v=i8W3MXN-mjE",
    "platform": "Video"
  },
  {
    "id": "MF0007",
    "link": "https://www.youtube.com/watch?v=m-0vKrFLXTQ",
    "platform": "Video"
  },
  {
    "id": "MF0007",
    "link": "https://www.youtube.com/watch?v=sggZrozzmOE",
    "platform": "Video"
  },
  {
    "id": "MF0007",
    "link": "https://www.youtube.com/watch?v=YY_f8fjeC0M",
    "platform": "Video"
  },
  {
    "id": "MF0008",
    "link": "https://twitter.com/7adramout_net/status/1144064705289310209",
    "platform": "Tweet"
  },
  {
    "id": "MF0008",
    "link": "https://twitter.com/aynalarab1/status/1144260796849037319",
    "platform": "Tweet"
  },
  {
    "id": "MF0008",
    "link": "https://twitter.com/BelqeesTV/status/1144568626537803777",
    "platform": "Tweet"
  },
  {
    "id": "MF0008",
    "link": "https://twitter.com/ERYANIM/status/1144049945059766272",
    "platform": "Tweet"
  },
  {
    "id": "MF0008",
    "link": "https://twitter.com/khaleel_54321/status/1144653466633166850",
    "platform": "Tweet"
  },
  {
    "id": "MF0008",
    "link": "https://twitter.com/RepublicanYemen/status/1144146581161172992",
    "platform": "Tweet"
  },
  {
    "id": "MF0008",
    "link": "https://twitter.com/yemen1tv/status/1144240986790486016",
    "platform": "Tweet"
  },
  {
    "id": "MF0008",
    "link": "https://www.youtube.com/watch?v=2t0beDBpyLI",
    "platform": "Video"
  },
  {
    "id": "MF0008",
    "link": "https://www.youtube.com/watch?v=89Grzj8K5N8",
    "platform": "Video"
  },
  {
    "id": "MF0008",
    "link": "https://www.youtube.com/watch?v=8NR8td3xkfw",
    "platform": "Video"
  },
  {
    "id": "MF0008",
    "link": "https://www.youtube.com/watch?v=bP4TNVYut5w",
    "platform": "Video"
  },
  {
    "id": "MF0008",
    "link": "https://www.youtube.com/watch?v=F7awYPt72JA",
    "platform": "Video"
  },
  {
    "id": "MF0008",
    "link": "https://www.youtube.com/watch?v=Ldc5qc3-vLQ",
    "platform": "Video"
  },
  {
    "id": "MF0008",
    "link": "https://www.youtube.com/watch?v=sfxblfRp4S0",
    "platform": "Video"
  },
  {
    "id": "MF0008",
    "link": "https://www.youtube.com/watch?v=ufUAyoOD9Hc",
    "platform": "Video"
  },
  {
    "id": "MF0008",
    "link": "https://www.youtube.com/watch?v=Vdwo3EFMCv8",
    "platform": "Video"
  },
  {
    "id": "MF0008",
    "link": "https://www.youtube.com/watch?v=xn0frrf0XvI",
    "platform": "Video"
  },
  {
    "id": "MF0009",
    "link": "https://twitter.com/Admfdlwzer/status/1050547457359323137",
    "platform": "Tweet"
  },
  {
    "id": "MF0009",
    "link": "https://twitter.com/AlMayadeenLive/status/1050444169813078016",
    "platform": "Tweet"
  },
  {
    "id": "MF0009",
    "link": "https://twitter.com/AnsarAllahMC/status/1051218129513275393",
    "platform": "Tweet"
  },
  {
    "id": "MF0009",
    "link": "https://twitter.com/MasirahTV/status/1051092423345131520",
    "platform": "Tweet"
  },
  {
    "id": "MF0009",
    "link": "https://twitter.com/mhmdalkebsy777/status/1050452535243345920",
    "platform": "Tweet"
  },
  {
    "id": "MF0009",
    "link": "https://twitter.com/RTArNewsRoom/status/1050474227126685696",
    "platform": "Tweet"
  },
  {
    "id": "MF0009",
    "link": "https://twitter.com/zBnnUT4lKioyZjO/status/1050428269231792129",
    "platform": "Tweet"
  },
  {
    "id": "MF0010",
    "link": "https://twitter.com/aawsat_News/status/1025489515039748096",
    "platform": "Tweet"
  },
  {
    "id": "MF0010",
    "link": "https://twitter.com/almasirah/status/1025074754208845824",
    "platform": "Tweet"
  },
  {
    "id": "MF0010",
    "link": "https://twitter.com/ALyemennow/status/1028236668128710656",
    "platform": "Tweet"
  },
  {
    "id": "MF0010",
    "link": "https://twitter.com/ERYANIM/status/1025509191610449920",
    "platform": "Tweet"
  },
  {
    "id": "MF0010",
    "link": "https://twitter.com/ERYANIM/status/1025512101970890753",
    "platform": "Tweet"
  },
  {
    "id": "MF0010",
    "link": "https://twitter.com/Newsyamen/status/1025112742141808640",
    "platform": "Tweet"
  },
  {
    "id": "MF0010",
    "link": "https://twitter.com/saleh_m_abuizah/status/1026009963532046336",
    "platform": "Tweet"
  },
  {
    "id": "MF0010",
    "link": "https://twitter.com/SaudiNews50/status/1025420494881927170",
    "platform": "Tweet"
  },
  {
    "id": "MF0010",
    "link": "https://twitter.com/shukran_salman/status/1025449102669238272",
    "platform": "Tweet"
  },
  {
    "id": "MF0010",
    "link": "https://www.youtube.com/watch?v=3DZAtL2mnzQ",
    "platform": "Video"
  },
  {
    "id": "MF0010",
    "link": "https://www.youtube.com/watch?v=3jhQqG4NNKM",
    "platform": "Video"
  },
  {
    "id": "MF0010",
    "link": "https://www.youtube.com/watch?v=4QAwFPmuf3U",
    "platform": "Video"
  },
  {
    "id": "MF0010",
    "link": "https://www.youtube.com/watch?v=61ImhBN-uek",
    "platform": "Video"
  },
  {
    "id": "MF0010",
    "link": "https://www.youtube.com/watch?v=6H9A_z8rN-g",
    "platform": "Video"
  },
  {
    "id": "MF0010",
    "link": "https://www.youtube.com/watch?v=70q1rIa2mt0",
    "platform": "Video"
  },
  {
    "id": "MF0010",
    "link": "https://www.youtube.com/watch?v=8El4L5_priM",
    "platform": "Video"
  },
  {
    "id": "MF0010",
    "link": "https://www.youtube.com/watch?v=aqgaRqWtAAU",
    "platform": "Video"
  },
  {
    "id": "MF0010",
    "link": "https://www.youtube.com/watch?v=bTYJPeFnak0",
    "platform": "Video"
  },
  {
    "id": "MF0010",
    "link": "https://www.youtube.com/watch?v=C4aX7ue2Tjc",
    "platform": "Video"
  },
  {
    "id": "MF0010",
    "link": "https://www.youtube.com/watch?v=FcSZmsiMrzU",
    "platform": "Video"
  },
  {
    "id": "MF0010",
    "link": "https://www.youtube.com/watch?v=gH8bOE_I8jc",
    "platform": "Video"
  },
  {
    "id": "MF0010",
    "link": "https://www.youtube.com/watch?v=ipJdV5Snov8",
    "platform": "Video"
  },
  {
    "id": "MF0010",
    "link": "https://www.youtube.com/watch?v=jOih9awNWd8",
    "platform": "Video"
  },
  {
    "id": "MF0010",
    "link": "https://www.youtube.com/watch?v=LbQqjoQroG4",
    "platform": "Video"
  },
  {
    "id": "MF0010",
    "link": "https://www.youtube.com/watch?v=Ntat96dMLxk",
    "platform": "Video"
  },
  {
    "id": "MF0010",
    "link": "https://www.youtube.com/watch?v=OWOVO1z4dPk",
    "platform": "Video"
  },
  {
    "id": "MF0010",
    "link": "https://www.youtube.com/watch?v=pp8rZ6wiR3s",
    "platform": "Video"
  },
  {
    "id": "MF0010",
    "link": "https://www.youtube.com/watch?v=QIfrEJu-Tg4",
    "platform": "Video"
  },
  {
    "id": "MF0010",
    "link": "https://www.youtube.com/watch?v=RVUvyi00mas",
    "platform": "Video"
  },
  {
    "id": "MF0010",
    "link": "https://www.youtube.com/watch?v=XXhQnYtDhkg",
    "platform": "Video"
  },
  {
    "id": "MF0010",
    "link": "https://www.youtube.com/watch?v=Z2-4KXXJsBk",
    "platform": "Video"
  },
  {
    "id": "MF0010",
    "link": "https://www.youtube.com/watch?v=Zl7Npx_gWcw",
    "platform": "Video"
  },
  {
    "id": "MF0011",
    "link": "https://twitter.com/alkhazzan_ahmed/status/688447278076461056",
    "platform": "Tweet"
  },
  {
    "id": "MF0011",
    "link": "https://twitter.com/ALyemennow/status/687936368077606912",
    "platform": "Tweet"
  },
  {
    "id": "MF0011",
    "link": "https://twitter.com/alzoka4/status/688052514936209408",
    "platform": "Tweet"
  },
  {
    "id": "MF0011",
    "link": "https://twitter.com/azoo_990/status/687937234805350400",
    "platform": "Tweet"
  },
  {
    "id": "MF0011",
    "link": "https://twitter.com/QalagPortal/status/687879798799085572",
    "platform": "Tweet"
  },
  {
    "id": "MF0011",
    "link": "https://twitter.com/taizynews/status/687915896472481792",
    "platform": "Tweet"
  },
  {
    "id": "MF0011",
    "link": "https://twitter.com/yqeenagency/status/688004268024958977",
    "platform": "Tweet"
  },
  {
    "id": "MF0011",
    "link": "https://www.youtube.com/watch?v=Kn5sAQvL95c",
    "platform": "Video"
  },
  {
    "id": "MF0012",
    "link": "https://twitter.com/athmar_jamal/status/664524942076170240",
    "platform": "Tweet"
  },
  {
    "id": "MF0012",
    "link": "https://twitter.com/Newsyamen/status/663531006729785344",
    "platform": "Tweet"
  },
  {
    "id": "MF0012",
    "link": "https://twitter.com/Rewech/status/662653539823423488",
    "platform": "Tweet"
  },
  {
    "id": "MF0012",
    "link": "https://twitter.com/skynewsarabia/status/664519238669832192",
    "platform": "Tweet"
  },
  {
    "id": "MF0012",
    "link": "https://twitter.com/SUHFNET_YE/status/663526563967725568",
    "platform": "Tweet"
  },
  {
    "id": "MF0012",
    "link": "https://twitter.com/Yemen_Brk/status/663511308881534976",
    "platform": "Tweet"
  },
  {
    "id": "MF0012",
    "link": "https://www.youtube.com/watch?v=TknwQIf_o_8",
    "platform": "Video"
  },
  {
    "id": "MF0012",
    "link": "https://www.youtube.com/watch?v=vQpJ5HFkDE0",
    "platform": "Video"
  },
  {
    "id": "MF0014",
    "link": "https://twitter.com/almasirah/status/635398002975178756",
    "platform": "Tweet"
  },
  {
    "id": "MF0014",
    "link": "https://twitter.com/Moh_Taiz/status/637771974920441856",
    "platform": "Tweet"
  },
  {
    "id": "MF0014",
    "link": "https://twitter.com/MohammedTahir14/status/635463901438545920",
    "platform": "Tweet"
  },
  {
    "id": "MF0014",
    "link": "https://twitter.com/SundOOos3434/status/635590021894959104",
    "platform": "Tweet"
  },
  {
    "id": "MF0014",
    "link": "https://twitter.com/taizcity/status/637985984441774080",
    "platform": "Tweet"
  },
  {
    "id": "MF0014",
    "link": "https://twitter.com/YT_POST/status/635446952616939520",
    "platform": "Tweet"
  },
  {
    "id": "MF0014",
    "link": "https://twitter.com/zaidaltholaia/status/635468579719114752",
    "platform": "Tweet"
  },
  {
    "id": "MF0014",
    "link": "https://www.youtube.com/watch?v=RD6mfEWCXrU",
    "platform": "Video"
  },
  {
    "id": "MF0015",
    "link": "https://twitter.com/7adramout_net/status/940903439248142337",
    "platform": "Tweet"
  },
  {
    "id": "MF0015",
    "link": "https://twitter.com/adenalghad/status/940821880088547328",
    "platform": "Tweet"
  },
  {
    "id": "MF0015",
    "link": "https://twitter.com/AdenLang/status/940903138520858625",
    "platform": "Tweet"
  },
  {
    "id": "MF0015",
    "link": "https://twitter.com/HadaremNet/status/940838256337440770",
    "platform": "Tweet"
  },
  {
    "id": "MF0015",
    "link": "https://twitter.com/MasadryNet/status/940849091319402496",
    "platform": "Tweet"
  },
  {
    "id": "MF0015",
    "link": "https://twitter.com/UAE71news/status/940806723450953731",
    "platform": "Tweet"
  },
  {
    "id": "MF0015",
    "link": "https://twitter.com/yemenpost_co/status/940860127409786882",
    "platform": "Tweet"
  },
  {
    "id": "MF0016",
    "link": "https://twitter.com/_7la_/status/805335857594892288",
    "platform": "Tweet"
  },
  {
    "id": "MF0016",
    "link": "https://www.youtube.com/watch?v=J6o5K0V0j08",
    "platform": "Video"
  },
  {
    "id": "MF0017",
    "link": "https://twitter.com/7adramout_net/status/1151531789787119616",
    "platform": "Tweet"
  },
  {
    "id": "MF0017",
    "link": "https://www.youtube.com/watch?v=10cI8VfRCuQ",
    "platform": "Video"
  },
  {
    "id": "MF0017",
    "link": "https://www.youtube.com/watch?v=30QG0CRzzK4",
    "platform": "Video"
  },
  {
    "id": "MF0017",
    "link": "https://www.youtube.com/watch?v=EY0qmPK934g",
    "platform": "Video"
  },
  {
    "id": "MF0017",
    "link": "https://www.youtube.com/watch?v=M-TkiBhdU-E",
    "platform": "Video"
  },
  {
    "id": "MF0019",
    "link": "https://twitter.com/abdullahSharabe/status/696371232665702401",
    "platform": "Tweet"
  },
  {
    "id": "MF0019",
    "link": "https://twitter.com/akhbartaiz2015/status/696321816428748800",
    "platform": "Tweet"
  },
  {
    "id": "MF0019",
    "link": "https://twitter.com/AYEMENNEWS/status/696317340477235202",
    "platform": "Tweet"
  },
  {
    "id": "MF0020",
    "link": "https://twitter.com/2decnews/status/1102966891759443972",
    "platform": "Tweet"
  },
  {
    "id": "MF0020",
    "link": "https://twitter.com/AdelShamsan/status/1103650472710340608",
    "platform": "Tweet"
  },
  {
    "id": "MF0020",
    "link": "https://twitter.com/AlyemenTaymz/status/1103310806702321665",
    "platform": "Tweet"
  },
  {
    "id": "MF0020",
    "link": "https://twitter.com/vnjo_711/status/1102983100685078531",
    "platform": "Tweet"
  },
  {
    "id": "MF0020",
    "link": "https://twitter.com/yementdy/status/1103212465633005568",
    "platform": "Tweet"
  },
  {
    "id": "MF0020",
    "link": "https://www.youtube.com/watch?v=9btkQWjMZ_s",
    "platform": "Video"
  },
  {
    "id": "MF0020",
    "link": "https://www.youtube.com/watch?v=KrZPd3PEp2k",
    "platform": "Video"
  },
  {
    "id": "MF0020",
    "link": "https://www.youtube.com/watch?v=R1IQ2S6gjyA",
    "platform": "Video"
  },
  {
    "id": "MF0020",
    "link": "https://www.youtube.com/watch?v=tcxRIuPkFEA",
    "platform": "Video"
  },
  {
    "id": "MF0021",
    "link": "https://twitter.com/AdenLang/status/513617195411046400",
    "platform": "Tweet"
  },
  {
    "id": "MF0021",
    "link": "https://twitter.com/almasdaronline/status/513292828646973441",
    "platform": "Tweet"
  },
  {
    "id": "MF0021",
    "link": "https://twitter.com/ShbaabYemen/status/513631436620849152",
    "platform": "Tweet"
  },
  {
    "id": "MF0021",
    "link": "https://twitter.com/SkyNewsArabia_B/status/513273214383161344",
    "platform": "Tweet"
  },
  {
    "id": "MF0021",
    "link": "https://www.youtube.com/watch?v=s7YfaZMM3dE",
    "platform": "Video"
  },
  {
    "id": "MF0022",
    "link": "https://twitter.com/AdenLang/status/595257476481720320",
    "platform": "Tweet"
  },
  {
    "id": "MF0022",
    "link": "https://twitter.com/mad_Aden/status/595328075119894528",
    "platform": "Tweet"
  },
  {
    "id": "MF0022",
    "link": "https://twitter.com/SamiYafaie/status/595255674717773824",
    "platform": "Tweet"
  },
  {
    "id": "MF0023",
    "link": "https://twitter.com/adennetwork/status/593410972712206337",
    "platform": "Tweet"
  },
  {
    "id": "MF0023",
    "link": "https://twitter.com/alguneid/status/588389120428224512",
    "platform": "Tweet"
  },
  {
    "id": "MF0023",
    "link": "https://www.youtube.com/watch?v=K709vw7YffU",
    "platform": "Video"
  },
  {
    "id": "MF0024",
    "link": "https://twitter.com/adennetwork/status/597032851586953216",
    "platform": "Tweet"
  },
  {
    "id": "MF0024",
    "link": "https://twitter.com/Tribuneofyemen/status/597000492401713153",
    "platform": "Tweet"
  },
  {
    "id": "MF0025",
    "link": "https://twitter.com/ahmadhasannemy/status/1006175750033113090",
    "platform": "Tweet"
  },
  {
    "id": "MF0025",
    "link": "https://twitter.com/M_Yemen_1473/status/1006257768075087873",
    "platform": "Tweet"
  },
  {
    "id": "MF0025",
    "link": "https://twitter.com/msf_yemen/status/1006121240862560256",
    "platform": "Tweet"
  },
  {
    "id": "MF0025",
    "link": "https://twitter.com/msf_yemen/status/1006123568755871745",
    "platform": "Tweet"
  },
  {
    "id": "MF0025",
    "link": "https://twitter.com/msf_yemen/status/1006900520093487106",
    "platform": "Tweet"
  },
  {
    "id": "MF0025",
    "link": "https://www.youtube.com/watch?v=1YBYjaA-KZw",
    "platform": "Video"
  },
  {
    "id": "MF0025",
    "link": "https://www.youtube.com/watch?v=vuh7U8oGWro",
    "platform": "Video"
  },
  {
    "id": "MF0025",
    "link": "https://www.youtube.com/watch?v=y7fIMKeJgH4",
    "platform": "Video"
  },
  {
    "id": "MF0026",
    "link": "https://twitter.com/AdenLang/status/590864961649311744",
    "platform": "Tweet"
  },
  {
    "id": "MF0026",
    "link": "https://twitter.com/AJABreaking/status/587910928726896640",
    "platform": "Tweet"
  },
  {
    "id": "MF0026",
    "link": "https://twitter.com/anees898/status/587706214978469888",
    "platform": "Tweet"
  },
  {
    "id": "MF0026",
    "link": "https://twitter.com/Ben_ataf/status/590872644838248451",
    "platform": "Tweet"
  },
  {
    "id": "MF0027",
    "link": "https://twitter.com/aawsat_News/status/593318860738207744",
    "platform": "Tweet"
  },
  {
    "id": "MF0027",
    "link": "https://twitter.com/akramalgaolahi/status/593285750826803200",
    "platform": "Tweet"
  },
  {
    "id": "MF0027",
    "link": "https://twitter.com/ali_hatemm/status/592330795500507136",
    "platform": "Tweet"
  },
  {
    "id": "MF0028",
    "link": "https://twitter.com/akhir_alakhbar/status/716675994275282945",
    "platform": "Tweet"
  },
  {
    "id": "MF0028",
    "link": "https://twitter.com/al_ghulise/status/717849808338350080",
    "platform": "Tweet"
  },
  {
    "id": "MF0028",
    "link": "https://twitter.com/WoNews_/status/716869604828651520",
    "platform": "Tweet"
  },
  {
    "id": "MF0028",
    "link": "https://twitter.com/yeaf11/status/717728115829637120",
    "platform": "Tweet"
  },
  {
    "id": "MF0028",
    "link": "https://twitter.com/yepress/status/716629617780461570",
    "platform": "Tweet"
  },
  {
    "id": "MF0028",
    "link": "https://twitter.com/yepress/status/716672465179688960",
    "platform": "Tweet"
  },
  {
    "id": "MF0028",
    "link": "https://www.youtube.com/watch?v=9L_mBtYV6gw",
    "platform": "Video"
  },
  {
    "id": "MF0028",
    "link": "https://www.youtube.com/watch?v=QhDgqKjrGko",
    "platform": "Video"
  },
  {
    "id": "MF0028",
    "link": "https://www.youtube.com/watch?v=TvOsZWpF9b8",
    "platform": "Video"
  },
  {
    "id": "MF0029",
    "link": "https://twitter.com/_MOH_BI/status/990641125336735745",
    "platform": "Tweet"
  },
  {
    "id": "MF0029",
    "link": "https://twitter.com/alain_4u/status/990197536769101825",
    "platform": "Tweet"
  },
  {
    "id": "MF0030",
    "link": "https://twitter.com/AlAMEDAhmdSALH/status/699289811295805440",
    "platform": "Tweet"
  },
  {
    "id": "MF0030",
    "link": "https://twitter.com/mohamadmahuob/status/699282529837326337",
    "platform": "Tweet"
  },
  {
    "id": "MF0031",
    "link": "https://twitter.com/AlArabiya/status/894997871514312708",
    "platform": "Tweet"
  },
  {
    "id": "MF0032",
    "link": "https://twitter.com/222sosoyemen/status/603916387166334976",
    "platform": "Tweet"
  },
  {
    "id": "MF0032",
    "link": "https://twitter.com/aldameer21/status/672383727218069504",
    "platform": "Tweet"
  },
  {
    "id": "MF0032",
    "link": "https://twitter.com/newsyemen_2016/status/672445444719554560",
    "platform": "Tweet"
  },
  {
    "id": "MF0033",
    "link": "https://twitter.com/alasimaonline/status/832320174783086592",
    "platform": "Tweet"
  },
  {
    "id": "MF0033",
    "link": "https://twitter.com/alfaqih1982/status/832362403354513408",
    "platform": "Tweet"
  },
  {
    "id": "MF0034",
    "link": "https://twitter.com/3meed_news/status/938683702313455616",
    "platform": "Tweet"
  },
  {
    "id": "MF0034",
    "link": "https://twitter.com/alasimaonline/status/938444443828609035",
    "platform": "Tweet"
  },
  {
    "id": "MF0034",
    "link": "https://twitter.com/alfaqih1982/status/938377883936010240",
    "platform": "Tweet"
  },
  {
    "id": "MF0034",
    "link": "https://twitter.com/AlkhabarNow/status/938424355205320704",
    "platform": "Tweet"
  },
  {
    "id": "MF0034",
    "link": "https://twitter.com/News_Brk24/status/938655623557902337",
    "platform": "Tweet"
  },
  {
    "id": "MF0034",
    "link": "https://www.youtube.com/watch?v=ABxAib_b2x0",
    "platform": "Video"
  },
  {
    "id": "MF0034",
    "link": "https://www.youtube.com/watch?v=pIW0lTuXAiM",
    "platform": "Video"
  },
  {
    "id": "MF0034",
    "link": "https://www.youtube.com/watch?v=vj7oD5W7YIU",
    "platform": "Video"
  },
  {
    "id": "MF0035",
    "link": "https://twitter.com/7adramout_net/status/1111636274073530368",
    "platform": "Tweet"
  },
  {
    "id": "MF0035",
    "link": "https://twitter.com/alain_4u/status/1111485634089119746",
    "platform": "Tweet"
  },
  {
    "id": "MF0035",
    "link": "https://twitter.com/alghadye/status/1111611463767126017",
    "platform": "Tweet"
  },
  {
    "id": "MF0035",
    "link": "https://twitter.com/alwfaqnews/status/1111595646941888512",
    "platform": "Tweet"
  },
  {
    "id": "MF0035",
    "link": "https://twitter.com/khlaasa/status/1111637113290805255",
    "platform": "Tweet"
  },
  {
    "id": "MF0035",
    "link": "https://twitter.com/zPGYv0WmR009tTT/status/1111652809211035650",
    "platform": "Tweet"
  },
  {
    "id": "MF0036",
    "link": "https://twitter.com/alhu2day/status/947509324892573696",
    "platform": "Tweet"
  },
  {
    "id": "MF0037",
    "link": "https://twitter.com/Ali_Albukhaiti/status/620222504569733120",
    "platform": "Tweet"
  },
  {
    "id": "MF0037",
    "link": "https://twitter.com/AnsarAllahMCB/status/619984256115183616",
    "platform": "Tweet"
  },
  {
    "id": "MF0038",
    "link": "https://twitter.com/111Yemn/status/516226803036221442",
    "platform": "Tweet"
  },
  {
    "id": "MF0038",
    "link": "https://twitter.com/ali_hatemm/status/516225470527176704",
    "platform": "Tweet"
  },
  {
    "id": "MF0038",
    "link": "https://twitter.com/ALIKLAKKIS1/status/516485903577923584",
    "platform": "Tweet"
  },
  {
    "id": "MF0038",
    "link": "https://twitter.com/la7n_aljor7/status/516269347958820864",
    "platform": "Tweet"
  },
  {
    "id": "MF0038",
    "link": "https://www.youtube.com/watch?v=Y2rAs_rdLdc",
    "platform": "Video"
  },
  {
    "id": "MF0040",
    "link": "https://www.youtube.com/watch?v=6TLj6IJX9IA",
    "platform": "Video"
  },
  {
    "id": "MF0040",
    "link": "https://www.youtube.com/watch?v=plM6ixYrnck",
    "platform": "Video"
  },
  {
    "id": "MF0040",
    "link": "https://www.youtube.com/watch?v=UGPSdMiu_No",
    "platform": "Video"
  },
  {
    "id": "MF0041",
    "link": "https://twitter.com/almarranii/status/937003676790591488",
    "platform": "Tweet"
  },
  {
    "id": "MF0041",
    "link": "https://twitter.com/oubamer/status/937005572171423744",
    "platform": "Tweet"
  },
  {
    "id": "MF0042",
    "link": "https://twitter.com/ahmadhasannemy/status/621754241837834240",
    "platform": "Tweet"
  },
  {
    "id": "MF0042",
    "link": "https://twitter.com/almasirah/status/621753802568396801",
    "platform": "Tweet"
  },
  {
    "id": "MF0042",
    "link": "https://twitter.com/Ben_ataf/status/621450885068013568",
    "platform": "Tweet"
  },
  {
    "id": "MF0043",
    "link": "https://twitter.com/almasirah/status/629753685690585088",
    "platform": "Tweet"
  },
  {
    "id": "MF0043",
    "link": "https://twitter.com/ALyemennow/status/629659942585245696",
    "platform": "Tweet"
  },
  {
    "id": "MF0043",
    "link": "https://twitter.com/LongLiveYemen/status/629729468534423552",
    "platform": "Tweet"
  },
  {
    "id": "MF0043",
    "link": "https://www.youtube.com/watch?v=3M-ASvEN6Ig",
    "platform": "Video"
  },
  {
    "id": "MF0045",
    "link": "https://twitter.com/aboraghadm1/status/646091112474615808",
    "platform": "Tweet"
  },
  {
    "id": "MF0045",
    "link": "https://twitter.com/almasirah/status/646047641780948992",
    "platform": "Tweet"
  },
  {
    "id": "MF0045",
    "link": "https://twitter.com/khabaragency/status/646064446524125184",
    "platform": "Tweet"
  },
  {
    "id": "MF0045",
    "link": "https://twitter.com/YemenCrisis/status/778244085807185921",
    "platform": "Tweet"
  },
  {
    "id": "MF0046",
    "link": "https://twitter.com/AlMayadeenLive/status/620304119996260352",
    "platform": "Tweet"
  },
  {
    "id": "MF0046",
    "link": "https://twitter.com/YT_POST/status/620306161909297152",
    "platform": "Tweet"
  },
  {
    "id": "MF0046",
    "link": "https://twitter.com/YT_POST/status/620404784361787392",
    "platform": "Tweet"
  },
  {
    "id": "MF0047",
    "link": "https://twitter.com/AlakhbarNews/status/672403305461653504",
    "platform": "Tweet"
  },
  {
    "id": "MF0047",
    "link": "https://twitter.com/AlMayadeenLive/status/672060732847038464",
    "platform": "Tweet"
  },
  {
    "id": "MF0047",
    "link": "https://twitter.com/cnnarabic/status/672666012442075136",
    "platform": "Tweet"
  },
  {
    "id": "MF0047",
    "link": "https://twitter.com/HoseinMortada/status/672430601270517761",
    "platform": "Tweet"
  },
  {
    "id": "MF0047",
    "link": "https://twitter.com/m__audin/status/672482502074847232",
    "platform": "Tweet"
  },
  {
    "id": "MF0047",
    "link": "https://twitter.com/SAUDIHEROES/status/673074504126611456",
    "platform": "Tweet"
  },
  {
    "id": "MF0047",
    "link": "https://www.youtube.com/watch?v=M_TCm_CMw8Q",
    "platform": "Video"
  },
  {
    "id": "MF0048",
    "link": "https://twitter.com/AlMayadeenNews/status/686483187388837888",
    "platform": "Tweet"
  },
  {
    "id": "MF0048",
    "link": "https://twitter.com/RTarabic_Bn/status/686152641517334528",
    "platform": "Tweet"
  },
  {
    "id": "MF0048",
    "link": "https://twitter.com/YemenForces/status/686206137155321858",
    "platform": "Tweet"
  },
  {
    "id": "MF0048",
    "link": "https://twitter.com/YemenForces/status/686239434895945729",
    "platform": "Tweet"
  },
  {
    "id": "MF0049",
    "link": "https://twitter.com/akramalgaolahi/status/607934943025430530",
    "platform": "Tweet"
  },
  {
    "id": "MF0049",
    "link": "https://twitter.com/almotamarnet/status/607953988516839424",
    "platform": "Tweet"
  },
  {
    "id": "MF0049",
    "link": "https://twitter.com/sam5sam7sam/status/607964058214494209",
    "platform": "Tweet"
  },
  {
    "id": "MF0049",
    "link": "https://twitter.com/yakfeee/status/607934954152951808",
    "platform": "Tweet"
  },
  {
    "id": "MF0049",
    "link": "https://twitter.com/yumroni/status/607934932015411201",
    "platform": "Tweet"
  },
  {
    "id": "MF0050",
    "link": "https://twitter.com/ALyemennow/status/1113094087639535616",
    "platform": "Tweet"
  },
  {
    "id": "MF0050",
    "link": "https://twitter.com/zPGYv0WmR009tTT/status/1113160182115258371",
    "platform": "Tweet"
  },
  {
    "id": "MF0051",
    "link": "https://twitter.com/0000997t/status/697086076989661184",
    "platform": "Tweet"
  },
  {
    "id": "MF0051",
    "link": "https://twitter.com/ALyemennow/status/699593202278469636",
    "platform": "Tweet"
  },
  {
    "id": "MF0052",
    "link": "https://twitter.com/alsalam_ksa/status/766053833114062848",
    "platform": "Tweet"
  },
  {
    "id": "MF0052",
    "link": "https://twitter.com/ALyemennow/status/766029600967327744",
    "platform": "Tweet"
  },
  {
    "id": "MF0053",
    "link": "https://twitter.com/7adramout_net/status/893216257998151680",
    "platform": "Tweet"
  },
  {
    "id": "MF0053",
    "link": "https://twitter.com/Alkhabar_Agency/status/893516963959406592",
    "platform": "Tweet"
  },
  {
    "id": "MF0053",
    "link": "https://twitter.com/ALyemennow/status/893460663699460096",
    "platform": "Tweet"
  },
  {
    "id": "MF0053",
    "link": "https://twitter.com/hafedmorad/status/893221653039198212",
    "platform": "Tweet"
  },
  {
    "id": "MF0053",
    "link": "https://twitter.com/SUHF_NET/status/893215377957715972",
    "platform": "Tweet"
  },
  {
    "id": "MF0054",
    "link": "https://twitter.com/AnsarAllahMC/status/1025815522603159552",
    "platform": "Tweet"
  },
  {
    "id": "MF0054",
    "link": "https://twitter.com/zaidaltholaia/status/1025871458466181120",
    "platform": "Tweet"
  },
  {
    "id": "MF0055",
    "link": "https://twitter.com/abo_raghad20112/status/941372593952706565",
    "platform": "Tweet"
  },
  {
    "id": "MF0055",
    "link": "https://twitter.com/AnsarAllahMC/status/940337916605235200",
    "platform": "Tweet"
  },
  {
    "id": "MF0055",
    "link": "https://twitter.com/MasirahTV/status/939883265837715457",
    "platform": "Tweet"
  },
  {
    "id": "MF0055",
    "link": "https://www.youtube.com/watch?v=7qg5WXWgpGk",
    "platform": "Video"
  },
  {
    "id": "MF0055",
    "link": "https://www.youtube.com/watch?v=8csVV5q3UhI",
    "platform": "Video"
  },
  {
    "id": "MF0056",
    "link": "https://twitter.com/ansarollah2/status/639809792509349888",
    "platform": "Tweet"
  },
  {
    "id": "MF0056",
    "link": "https://twitter.com/hashmi_iman/status/640017588227936256",
    "platform": "Tweet"
  },
  {
    "id": "MF0057",
    "link": "https://twitter.com/basha_hossam20/status/1157586790523527169",
    "platform": "Tweet"
  },
  {
    "id": "MF0057",
    "link": "https://twitter.com/NadaAlrabie/status/1157619451807916033",
    "platform": "Tweet"
  },
  {
    "id": "MF0058",
    "link": "https://twitter.com/Clou_d_1/status/612808575157583873",
    "platform": "Tweet"
  },
  {
    "id": "MF0058",
    "link": "https://twitter.com/GairHawah/status/612798529593933825",
    "platform": "Tweet"
  },
  {
    "id": "MF0058",
    "link": "https://twitter.com/hosaam12/status/612848302271385600",
    "platform": "Tweet"
  },
  {
    "id": "MF0058",
    "link": "https://twitter.com/mareb_alward/status/612784816556105728",
    "platform": "Tweet"
  },
  {
    "id": "MF0058",
    "link": "https://twitter.com/YenNews1/status/612782476092698624",
    "platform": "Tweet"
  },
  {
    "id": "MF0058",
    "link": "https://twitter.com/zizoymn/status/612791675996520449",
    "platform": "Tweet"
  },
  {
    "id": "MF0060",
    "link": "https://twitter.com/ALyemennow/status/812654606341775361",
    "platform": "Tweet"
  },
  {
    "id": "MF0060",
    "link": "https://twitter.com/drahf2011gmail1/status/947518191022100481",
    "platform": "Tweet"
  },
  {
    "id": "MF0061",
    "link": "https://twitter.com/AbdulSala_Ali/status/719319562676776960",
    "platform": "Tweet"
  },
  {
    "id": "MF0061",
    "link": "https://twitter.com/e_taiz/status/719329961862107136",
    "platform": "Tweet"
  },
  {
    "id": "MF0061",
    "link": "https://twitter.com/elmikhlafi/status/719329708832329728",
    "platform": "Tweet"
  },
  {
    "id": "MF0062",
    "link": "https://twitter.com/0fAN6YjiSgGjnxh/status/665544154794061824",
    "platform": "Tweet"
  },
  {
    "id": "MF0062",
    "link": "https://twitter.com/Abdullah_Qahoum/status/665487973098516480",
    "platform": "Tweet"
  },
  {
    "id": "MF0062",
    "link": "https://twitter.com/EngYaseen/status/665553143376289793",
    "platform": "Tweet"
  },
  {
    "id": "MF0062",
    "link": "https://twitter.com/gamal22k21/status/665486309314592768",
    "platform": "Tweet"
  },
  {
    "id": "MF0062",
    "link": "https://twitter.com/jerrytom09/status/665500013569712128",
    "platform": "Tweet"
  },
  {
    "id": "MF0062",
    "link": "https://twitter.com/newsyemen_2016/status/665536490794057729",
    "platform": "Tweet"
  },
  {
    "id": "MF0062",
    "link": "https://www.youtube.com/watch?v=abwtvMM8IOY",
    "platform": "Video"
  },
  {
    "id": "MF0063",
    "link": "https://twitter.com/assad205/status/980036736595177472",
    "platform": "Tweet"
  },
  {
    "id": "MF0063",
    "link": "https://twitter.com/EremNews/status/979856813741948929",
    "platform": "Tweet"
  },
  {
    "id": "MF0063",
    "link": "https://twitter.com/hmod20_2019/status/978700998117031936",
    "platform": "Tweet"
  },
  {
    "id": "MF0063",
    "link": "https://twitter.com/iftihanail/status/978929273791746048",
    "platform": "Tweet"
  },
  {
    "id": "MF0063",
    "link": "https://twitter.com/OmarAlmurshed/status/978678946232446978",
    "platform": "Tweet"
  },
  {
    "id": "MF0063",
    "link": "https://twitter.com/yem_Breaking/status/979874878835720192",
    "platform": "Tweet"
  },
  {
    "id": "MF0063",
    "link": "https://www.youtube.com/watch?v=9d_EMcVorS4",
    "platform": "Video"
  },
  {
    "id": "MF0065",
    "link": "https://twitter.com/farissaeedtaiz/status/687326804210761730",
    "platform": "Tweet"
  },
  {
    "id": "MF0065",
    "link": "https://twitter.com/khabaragency/status/687327071920623616",
    "platform": "Tweet"
  },
  {
    "id": "MF0065",
    "link": "https://twitter.com/RTArNewsRoom/status/687500943475249152",
    "platform": "Tweet"
  },
  {
    "id": "MF0065",
    "link": "https://twitter.com/Tribuneofyemen/status/687357371656617988",
    "platform": "Tweet"
  },
  {
    "id": "MF0065",
    "link": "https://twitter.com/YemenForces/status/687360412266926085",
    "platform": "Tweet"
  },
  {
    "id": "MF0066",
    "link": "https://twitter.com/egy_damas/status/588616810322272260",
    "platform": "Tweet"
  },
  {
    "id": "MF0066",
    "link": "https://twitter.com/fouadmokdad/status/588621408504188929",
    "platform": "Tweet"
  },
  {
    "id": "MF0066",
    "link": "https://twitter.com/non14news/status/588618130626203649",
    "platform": "Tweet"
  },
  {
    "id": "MF0067",
    "link": "https://twitter.com/almotamarnet/status/640948534720618497",
    "platform": "Tweet"
  },
  {
    "id": "MF0067",
    "link": "https://twitter.com/France24_ar/status/640883878916296704",
    "platform": "Tweet"
  },
  {
    "id": "MF0067",
    "link": "https://twitter.com/khabaragency/status/640511228041826304",
    "platform": "Tweet"
  },
  {
    "id": "MF0067",
    "link": "https://twitter.com/khabaragency/status/640537833183121409",
    "platform": "Tweet"
  },
  {
    "id": "MF0067",
    "link": "https://www.youtube.com/watch?v=JwPQQG3ZqQo",
    "platform": "Video"
  },
  {
    "id": "MF0067",
    "link": "https://www.youtube.com/watch?v=MIOJPRJcEEE",
    "platform": "Video"
  },
  {
    "id": "MF0067",
    "link": "https://www.youtube.com/watch?v=Uo1kIz1OQYs",
    "platform": "Video"
  },
  {
    "id": "MF0068",
    "link": "https://twitter.com/a393320/status/916354053889806336",
    "platform": "Tweet"
  },
  {
    "id": "MF0068",
    "link": "https://twitter.com/AnsarAllahMC/status/916344416494915585",
    "platform": "Tweet"
  },
  {
    "id": "MF0068",
    "link": "https://twitter.com/fuad525ffff/status/916408525332639745",
    "platform": "Tweet"
  },
  {
    "id": "MF0068",
    "link": "https://twitter.com/MasirahTV/status/916343699432493057",
    "platform": "Tweet"
  },
  {
    "id": "MF0068",
    "link": "https://twitter.com/weejee_weejee/status/916350364038950912",
    "platform": "Tweet"
  },
  {
    "id": "MF0068",
    "link": "https://www.youtube.com/watch?v=LsYlSwyNu5Y",
    "platform": "Video"
  },
  {
    "id": "MF0070",
    "link": "https://twitter.com/abumurtuda/status/597818815028731906",
    "platform": "Tweet"
  },
  {
    "id": "MF0070",
    "link": "https://twitter.com/hamedalbukhiti/status/597817956869935104",
    "platform": "Tweet"
  },
  {
    "id": "MF0070",
    "link": "https://twitter.com/osamasari77/status/597819145862930433",
    "platform": "Tweet"
  },
  {
    "id": "MF0071",
    "link": "https://twitter.com/Almseernewss/status/635120173373001728",
    "platform": "Tweet"
  },
  {
    "id": "MF0071",
    "link": "https://twitter.com/hashmi_iman/status/635203619755790337",
    "platform": "Tweet"
  },
  {
    "id": "MF0071",
    "link": "https://twitter.com/YmnToday/status/635103784658583553",
    "platform": "Tweet"
  },
  {
    "id": "MF0071",
    "link": "https://www.youtube.com/watch?v=YIShoKuwk7s",
    "platform": "Video"
  },
  {
    "id": "MF0072",
    "link": "https://twitter.com/ahraralyemen1/status/777823702037700608",
    "platform": "Tweet"
  },
  {
    "id": "MF0072",
    "link": "https://twitter.com/aljawfnet/status/777794837965860864",
    "platform": "Tweet"
  },
  {
    "id": "MF0072",
    "link": "https://twitter.com/AlmajdNewSS/status/777833224596840448",
    "platform": "Tweet"
  },
  {
    "id": "MF0072",
    "link": "https://twitter.com/hashmi_iman/status/777915450437009408",
    "platform": "Tweet"
  },
  {
    "id": "MF0072",
    "link": "https://twitter.com/yemenlimit/status/777909296864587777",
    "platform": "Tweet"
  },
  {
    "id": "MF0073",
    "link": "https://twitter.com/m__audin/status/768432034922496000",
    "platform": "Tweet"
  },
  {
    "id": "MF0073",
    "link": "https://twitter.com/my1news/status/768366104867577856",
    "platform": "Tweet"
  },
  {
    "id": "MF0073",
    "link": "https://twitter.com/SahafahyemenNet/status/768426666288943105",
    "platform": "Tweet"
  },
  {
    "id": "MF0074",
    "link": "https://twitter.com/adenalghad/status/728548172734337024",
    "platform": "Tweet"
  },
  {
    "id": "MF0074",
    "link": "https://twitter.com/Krooz_3jaj/status/728606130562289664",
    "platform": "Tweet"
  },
  {
    "id": "MF0075",
    "link": "https://twitter.com/Belqis_Y/status/686629024555139072",
    "platform": "Tweet"
  },
  {
    "id": "MF0075",
    "link": "https://twitter.com/khabaragency/status/686535852630097920",
    "platform": "Tweet"
  },
  {
    "id": "MF0075",
    "link": "https://twitter.com/m__audin/status/687755331485745152",
    "platform": "Tweet"
  },
  {
    "id": "MF0075",
    "link": "https://twitter.com/Yemen24news/status/686587197990936576",
    "platform": "Tweet"
  },
  {
    "id": "MF0075",
    "link": "https://twitter.com/YT_POST/status/686649098607411200",
    "platform": "Tweet"
  },
  {
    "id": "MF0076",
    "link": "https://twitter.com/alwfaqnews/status/1137121765111586817",
    "platform": "Tweet"
  },
  {
    "id": "MF0076",
    "link": "https://twitter.com/Jumana511/status/1137123591546441729",
    "platform": "Tweet"
  },
  {
    "id": "MF0076",
    "link": "https://twitter.com/m_alghulisi/status/1137015290666135552",
    "platform": "Tweet"
  },
  {
    "id": "MF0076",
    "link": "https://www.youtube.com/watch?v=jLvOkBzJ31o",
    "platform": "Video"
  },
  {
    "id": "MF0077",
    "link": "https://twitter.com/alguneid/status/599067994740785152",
    "platform": "Tweet"
  },
  {
    "id": "MF0077",
    "link": "https://twitter.com/mareb_alward/status/599231690221879298",
    "platform": "Tweet"
  },
  {
    "id": "MF0078",
    "link": "https://twitter.com/mashhadyemeni/status/614262531209711616",
    "platform": "Tweet"
  },
  {
    "id": "MF0078",
    "link": "https://www.youtube.com/watch?v=jO7RnKmurUE",
    "platform": "Video"
  },
  {
    "id": "MF0079",
    "link": "https://twitter.com/alsharafi197/status/659060307290116097",
    "platform": "Tweet"
  },
  {
    "id": "MF0079",
    "link": "https://twitter.com/khabaragency/status/659390838414442496",
    "platform": "Tweet"
  },
  {
    "id": "MF0079",
    "link": "https://twitter.com/MasirahTV/status/659451744318005248",
    "platform": "Tweet"
  },
  {
    "id": "MF0079",
    "link": "https://twitter.com/Moqawmah_Azal/status/659023888404344832",
    "platform": "Tweet"
  },
  {
    "id": "MF0079",
    "link": "https://twitter.com/RTarabic/status/659168987763339264",
    "platform": "Tweet"
  },
  {
    "id": "MF0079",
    "link": "https://twitter.com/yqeenagency/status/658737568834416641",
    "platform": "Tweet"
  },
  {
    "id": "MF0079",
    "link": "https://www.youtube.com/watch?v=6pKKqhhs-ZM",
    "platform": "Video"
  },
  {
    "id": "MF0079",
    "link": "https://www.youtube.com/watch?v=8-hbExzxucs",
    "platform": "Video"
  },
  {
    "id": "MF0079",
    "link": "https://www.youtube.com/watch?v=EP1EWAa-T2c",
    "platform": "Video"
  },
  {
    "id": "MF0079",
    "link": "https://www.youtube.com/watch?v=IAA2VAegxCU",
    "platform": "Video"
  },
  {
    "id": "MF0079",
    "link": "https://www.youtube.com/watch?v=oc9e4T0nTfk",
    "platform": "Video"
  },
  {
    "id": "MF0080",
    "link": "https://twitter.com/MasirahTV/status/693091142179643392",
    "platform": "Tweet"
  },
  {
    "id": "MF0081",
    "link": "https://twitter.com/AnsarAllahMC/status/849584217151483906",
    "platform": "Tweet"
  },
  {
    "id": "MF0081",
    "link": "https://twitter.com/khabaragency/status/849689402481803264",
    "platform": "Tweet"
  },
  {
    "id": "MF0081",
    "link": "https://twitter.com/MasirahTV/status/849581150595158016",
    "platform": "Tweet"
  },
  {
    "id": "MF0082",
    "link": "https://twitter.com/HoseinMortada/status/946438463787712512",
    "platform": "Tweet"
  },
  {
    "id": "MF0082",
    "link": "https://twitter.com/MasirahTV/status/946436710078058497",
    "platform": "Tweet"
  },
  {
    "id": "MF0082",
    "link": "https://www.youtube.com/watch?v=inj18f3UiEI",
    "platform": "Video"
  },
  {
    "id": "MF0083",
    "link": "https://twitter.com/ALSerajyIbrahim/status/989980418601619456",
    "platform": "Tweet"
  },
  {
    "id": "MF0083",
    "link": "https://twitter.com/M_Yemen_1473/status/989980252431626240",
    "platform": "Tweet"
  },
  {
    "id": "MF0083",
    "link": "https://twitter.com/MasirahTV/status/989979789468602369",
    "platform": "Tweet"
  },
  {
    "id": "MF0083",
    "link": "https://twitter.com/yemeny604/status/989982278414749703",
    "platform": "Tweet"
  },
  {
    "id": "MF0083",
    "link": "https://www.youtube.com/watch?v=2l2C3aOlXOU",
    "platform": "Video"
  },
  {
    "id": "MF0083",
    "link": "https://www.youtube.com/watch?v=2pS8axnL9C0",
    "platform": "Video"
  },
  {
    "id": "MF0083",
    "link": "https://www.youtube.com/watch?v=dxoluZ8JGFo",
    "platform": "Video"
  },
  {
    "id": "MF0083",
    "link": "https://www.youtube.com/watch?v=FaxoPpp_52c",
    "platform": "Video"
  },
  {
    "id": "MF0084",
    "link": "https://twitter.com/abduljabbar1612/status/1060930970944184320",
    "platform": "Tweet"
  },
  {
    "id": "MF0084",
    "link": "https://twitter.com/ALyemennow/status/1059773422279057414",
    "platform": "Tweet"
  },
  {
    "id": "MF0084",
    "link": "https://twitter.com/ALyemennow/status/1061003228282830848",
    "platform": "Tweet"
  },
  {
    "id": "MF0084",
    "link": "https://twitter.com/ERYANIM/status/1061004109527109632",
    "platform": "Tweet"
  },
  {
    "id": "MF0084",
    "link": "https://twitter.com/malarab1/status/1059773708464783361",
    "platform": "Tweet"
  },
  {
    "id": "MF0084",
    "link": "https://twitter.com/MJumeh/status/1060542270959742976",
    "platform": "Tweet"
  },
  {
    "id": "MF0085",
    "link": "https://twitter.com/AnsarAllahMCB/status/1070309053040070657",
    "platform": "Tweet"
  },
  {
    "id": "MF0085",
    "link": "https://twitter.com/G_ivara/status/1070311156223483905",
    "platform": "Tweet"
  },
  {
    "id": "MF0085",
    "link": "https://twitter.com/MasirahTV/status/1070305708367904768",
    "platform": "Tweet"
  },
  {
    "id": "MF0085",
    "link": "https://twitter.com/mdohohbly3/status/1070334064471826432",
    "platform": "Tweet"
  },
  {
    "id": "MF0085",
    "link": "https://twitter.com/mlaad_smaatt/status/1070306899793494017",
    "platform": "Tweet"
  },
  {
    "id": "MF0085",
    "link": "https://twitter.com/t_YNnews/status/1070305411327238144",
    "platform": "Tweet"
  },
  {
    "id": "MF0086",
    "link": "https://twitter.com/almasirah/status/619981275630190593",
    "platform": "Tweet"
  },
  {
    "id": "MF0086",
    "link": "https://twitter.com/muhmadhisan/status/613869573880840192",
    "platform": "Tweet"
  },
  {
    "id": "MF0086",
    "link": "https://www.youtube.com/watch?v=lPD6KeMt3VY",
    "platform": "Video"
  },
  {
    "id": "MF0088",
    "link": "https://twitter.com/almasirah/status/1076177256781889537",
    "platform": "Tweet"
  },
  {
    "id": "MF0088",
    "link": "https://twitter.com/AlMayadeenLive/status/1076143095085977600",
    "platform": "Tweet"
  },
  {
    "id": "MF0088",
    "link": "https://twitter.com/Axis_of_resista/status/1076246536390991872",
    "platform": "Tweet"
  },
  {
    "id": "MF0088",
    "link": "https://twitter.com/MasirahTV/status/1076163270606815233",
    "platform": "Tweet"
  },
  {
    "id": "MF0088",
    "link": "https://twitter.com/MasirahTV/status/1076168191427182592",
    "platform": "Tweet"
  },
  {
    "id": "MF0088",
    "link": "https://twitter.com/Mohamed81497506/status/1076178061471764486",
    "platform": "Tweet"
  },
  {
    "id": "MF0088",
    "link": "https://twitter.com/t_YNnews/status/1076143897401847808",
    "platform": "Tweet"
  },
  {
    "id": "MF0089",
    "link": "https://twitter.com/almasirah/status/636162781947949056",
    "platform": "Tweet"
  },
  {
    "id": "MF0089",
    "link": "https://twitter.com/khabaragency/status/636195506180325377",
    "platform": "Tweet"
  },
  {
    "id": "MF0089",
    "link": "https://twitter.com/MohammedTahir14/status/636171701261176832",
    "platform": "Tweet"
  },
  {
    "id": "MF0089",
    "link": "https://twitter.com/mokarm2015/status/636166411036033024",
    "platform": "Tweet"
  },
  {
    "id": "MF0089",
    "link": "https://twitter.com/yemenlimit/status/636164455617941504",
    "platform": "Tweet"
  },
  {
    "id": "MF0090",
    "link": "https://twitter.com/Kh33B/status/688772750165590016",
    "platform": "Tweet"
  },
  {
    "id": "MF0090",
    "link": "https://twitter.com/mhamadalshaibi1/status/688770804620865537",
    "platform": "Tweet"
  },
  {
    "id": "MF0090",
    "link": "https://twitter.com/MrsdYem/status/688737285169373184",
    "platform": "Tweet"
  },
  {
    "id": "MF0090",
    "link": "https://twitter.com/ShaykahASaleh/status/688494051146993665",
    "platform": "Tweet"
  },
  {
    "id": "MF0090",
    "link": "https://www.youtube.com/watch?v=5QogKuA1lkc",
    "platform": "Video"
  },
  {
    "id": "MF0090",
    "link": "https://www.youtube.com/watch?v=wvf_xadXB4o",
    "platform": "Video"
  },
  {
    "id": "MF0091",
    "link": "https://twitter.com/ofok_news/status/682389343747571712",
    "platform": "Tweet"
  },
  {
    "id": "MF0092",
    "link": "https://twitter.com/ResistanceTaiz/status/686977720752934913",
    "platform": "Tweet"
  },
  {
    "id": "MF0092",
    "link": "https://twitter.com/sabanew_/status/687019041488175104",
    "platform": "Tweet"
  },
  {
    "id": "MF0092",
    "link": "https://twitter.com/staronsky111/status/686908627957972993",
    "platform": "Tweet"
  },
  {
    "id": "MF0092",
    "link": "https://twitter.com/uwhldoks/status/686981081430659073",
    "platform": "Tweet"
  },
  {
    "id": "MF0092",
    "link": "https://www.youtube.com/watch?v=4Gxgw7j2w8o",
    "platform": "Video"
  },
  {
    "id": "MF0092",
    "link": "https://www.youtube.com/watch?v=838fRzMIc2k",
    "platform": "Video"
  },
  {
    "id": "MF0092",
    "link": "https://www.youtube.com/watch?v=Uy-ygB5wrVI",
    "platform": "Video"
  },
  {
    "id": "MF0093",
    "link": "https://twitter.com/saifallah_scud/status/713081093377900544",
    "platform": "Tweet"
  },
  {
    "id": "MF0094",
    "link": "https://twitter.com/alyemennews/status/625779659649646592",
    "platform": "Tweet"
  },
  {
    "id": "MF0094",
    "link": "https://twitter.com/khabaragency/status/625771197662367745",
    "platform": "Tweet"
  },
  {
    "id": "MF0094",
    "link": "https://twitter.com/sam5sam7sam/status/625937713678585857",
    "platform": "Tweet"
  },
  {
    "id": "MF0094",
    "link": "https://www.youtube.com/watch?v=Q5ID15vCoz0",
    "platform": "Video"
  },
  {
    "id": "MF0095",
    "link": "https://twitter.com/khabaragency/status/636170654266454016",
    "platform": "Tweet"
  },
  {
    "id": "MF0095",
    "link": "https://twitter.com/shfinews/status/636188534811041793",
    "platform": "Tweet"
  },
  {
    "id": "MF0096",
    "link": "https://twitter.com/Ms3dBan/status/658700949905518592",
    "platform": "Tweet"
  },
  {
    "id": "MF0096",
    "link": "https://twitter.com/shfinews/status/658757552109453316",
    "platform": "Tweet"
  },
  {
    "id": "MF0096",
    "link": "https://www.youtube.com/watch?v=-2C_ozVTRcM",
    "platform": "Video"
  },
  {
    "id": "MF0096",
    "link": "https://www.youtube.com/watch?v=NqbFG0jVD9o",
    "platform": "Video"
  },
  {
    "id": "MF0097",
    "link": "https://twitter.com/Alfahrr2/status/1072583228110880769",
    "platform": "Tweet"
  },
  {
    "id": "MF0097",
    "link": "https://twitter.com/baseem_aljenani/status/1072564778944602118",
    "platform": "Tweet"
  },
  {
    "id": "MF0097",
    "link": "https://twitter.com/majjed2012/status/1072944060455927808",
    "platform": "Tweet"
  },
  {
    "id": "MF0097",
    "link": "https://twitter.com/MAlshahidy/status/1072578634605625344",
    "platform": "Tweet"
  },
  {
    "id": "MF0097",
    "link": "https://twitter.com/shiaal97/status/1072572698847518720",
    "platform": "Tweet"
  },
  {
    "id": "MF0097",
    "link": "https://www.youtube.com/watch?v=D3wlSkXznJI",
    "platform": "Video"
  },
  {
    "id": "MF0098",
    "link": "https://twitter.com/abo_raghad20112/status/1008035725747609602",
    "platform": "Tweet"
  },
  {
    "id": "MF0098",
    "link": "https://twitter.com/alshrffe/status/1008036057680662529",
    "platform": "Tweet"
  },
  {
    "id": "MF0098",
    "link": "https://twitter.com/boabtalyemen/status/1007992919167524864",
    "platform": "Tweet"
  },
  {
    "id": "MF0098",
    "link": "https://twitter.com/Fardoos_____s/status/1008083835580542976",
    "platform": "Tweet"
  },
  {
    "id": "MF0098",
    "link": "https://twitter.com/shwarboffice/status/1008393904637476866",
    "platform": "Tweet"
  },
  {
    "id": "MF0099",
    "link": "https://twitter.com/ALyemennow/status/977961181276200960",
    "platform": "Tweet"
  },
  {
    "id": "MF0099",
    "link": "https://twitter.com/SkyNewsArabia_B/status/978202728135618560",
    "platform": "Tweet"
  },
  {
    "id": "MF0100",
    "link": "https://twitter.com/suhailchannel/status/1100463534478106624",
    "platform": "Tweet"
  },
  {
    "id": "MF0100",
    "link": "https://www.youtube.com/watch?v=UjKAeuV3JFA",
    "platform": "Video"
  },
  {
    "id": "MF0101",
    "link": "https://twitter.com/ahmedhzaa71/status/800275574337970176",
    "platform": "Tweet"
  },
  {
    "id": "MF0101",
    "link": "https://twitter.com/alsmoodnews/status/800323649060343808",
    "platform": "Tweet"
  },
  {
    "id": "MF0101",
    "link": "https://twitter.com/ma_alhadath/status/800329626098827265",
    "platform": "Tweet"
  },
  {
    "id": "MF0101",
    "link": "https://twitter.com/sahwanet2/status/800284930832007168",
    "platform": "Tweet"
  },
  {
    "id": "MF0101",
    "link": "https://twitter.com/suhailchannel/status/800273073039609856",
    "platform": "Tweet"
  },
  {
    "id": "MF0101",
    "link": "https://twitter.com/taiz_heart1city/status/800288707731259392",
    "platform": "Tweet"
  },
  {
    "id": "MF0101",
    "link": "https://www.youtube.com/watch?v=7Valf_xv3pM",
    "platform": "Video"
  },
  {
    "id": "MF0101",
    "link": "https://www.youtube.com/watch?v=UmL02FWsi7Q",
    "platform": "Video"
  },
  {
    "id": "MF0101",
    "link": "https://www.youtube.com/watch?v=ZejW9uK2UT0",
    "platform": "Video"
  },
  {
    "id": "MF0102",
    "link": "https://twitter.com/AlMayadeenLive/status/582438446607679488",
    "platform": "Tweet"
  },
  {
    "id": "MF0102",
    "link": "https://twitter.com/UnitedAdel/status/582662617820348416",
    "platform": "Tweet"
  },
  {
    "id": "MF0102",
    "link": "https://www.youtube.com/watch?v=52mJlH8HK3c",
    "platform": "Video"
  },
  {
    "id": "MF0102",
    "link": "https://www.youtube.com/watch?v=su7d727yZso",
    "platform": "Video"
  },
  {
    "id": "MF0103",
    "link": "https://twitter.com/akhbartaiz2015/status/774900409286725632",
    "platform": "Tweet"
  },
  {
    "id": "MF0103",
    "link": "https://twitter.com/taizcity/status/774902125298126848",
    "platform": "Tweet"
  },
  {
    "id": "MF0103",
    "link": "https://www.youtube.com/watch?v=zonOlwLZFg8",
    "platform": "Video"
  },
  {
    "id": "MF0105",
    "link": "https://twitter.com/Abo_fast_/status/772521942272380929",
    "platform": "Tweet"
  },
  {
    "id": "MF0105",
    "link": "https://twitter.com/ahmedmokiber/status/774899168468955136",
    "platform": "Tweet"
  },
  {
    "id": "MF0105",
    "link": "https://twitter.com/ansar_allh19/status/772860629866741760",
    "platform": "Tweet"
  },
  {
    "id": "MF0105",
    "link": "https://twitter.com/WeenAlEnfigar/status/772503639021748224",
    "platform": "Tweet"
  },
  {
    "id": "MF0105",
    "link": "https://twitter.com/yasser_alawadi/status/772503775546400768",
    "platform": "Tweet"
  },
  {
    "id": "MF0105",
    "link": "https://twitter.com/yemenionly2/status/772890726313132032",
    "platform": "Tweet"
  },
  {
    "id": "MF0105",
    "link": "https://www.youtube.com/watch?v=Cp1vg503MiI",
    "platform": "Video"
  },
  {
    "id": "MF0105",
    "link": "https://www.youtube.com/watch?v=XhpT3TahdFs",
    "platform": "Video"
  },
  {
    "id": "MF0106",
    "link": "https://twitter.com/alhothy2013/status/639737610953297920",
    "platform": "Tweet"
  },
  {
    "id": "MF0106",
    "link": "https://twitter.com/AlmhdarAfash/status/584784373486084096",
    "platform": "Tweet"
  },
  {
    "id": "MF0106",
    "link": "https://twitter.com/k45985555555555/status/584785289467527168",
    "platform": "Tweet"
  },
  {
    "id": "MF0106",
    "link": "https://twitter.com/sultan715582282/status/686180051398742020",
    "platform": "Tweet"
  },
  {
    "id": "MF0106",
    "link": "https://twitter.com/WeenAlEnfigar/status/775035667374014464",
    "platform": "Tweet"
  },
  {
    "id": "MF0106",
    "link": "https://twitter.com/yemenlimit/status/639727078871597056",
    "platform": "Tweet"
  },
  {
    "id": "MF0107",
    "link": "https://twitter.com/asalmanaa9611/status/762650594138021888",
    "platform": "Tweet"
  },
  {
    "id": "MF0107",
    "link": "https://twitter.com/khabaragency/status/762646840265306113",
    "platform": "Tweet"
  },
  {
    "id": "MF0107",
    "link": "https://twitter.com/mohamadmahuob/status/774911663644545024",
    "platform": "Tweet"
  },
  {
    "id": "MF0107",
    "link": "https://twitter.com/xxp100/status/762640692283789313",
    "platform": "Tweet"
  },
  {
    "id": "MF0107",
    "link": "https://twitter.com/yemennows/status/762650233549512704",
    "platform": "Tweet"
  },
  {
    "id": "MF0108",
    "link": "https://twitter.com/ahmedhzaa71/status/973482485068849152",
    "platform": "Tweet"
  },
  {
    "id": "MF0108",
    "link": "https://twitter.com/alguneid/status/973595803485810688",
    "platform": "Tweet"
  },
  {
    "id": "MF0108",
    "link": "https://twitter.com/YemenShababNet/status/973558815600906240",
    "platform": "Tweet"
  },
  {
    "id": "MF0108",
    "link": "https://www.youtube.com/watch?v=JC0AFyqiprM",
    "platform": "Video"
  },
  {
    "id": "MF0108",
    "link": "https://www.youtube.com/watch?v=Uj-82v3C0q4",
    "platform": "Video"
  },
  {
    "id": "MF0109",
    "link": "https://twitter.com/HananMagtari/status/920391191748907008",
    "platform": "Tweet"
  },
  {
    "id": "MF0109",
    "link": "https://twitter.com/yemenpost_co/status/920392262613430273",
    "platform": "Tweet"
  },
  {
    "id": "MF0109",
    "link": "https://twitter.com/yementelegraph/status/920440589027553280",
    "platform": "Tweet"
  },
  {
    "id": "MF0110",
    "link": "https://twitter.com/YT_POST/status/596665357345148928",
    "platform": "Tweet"
  },
  {
    "id": "MF0111",
    "link": "https://twitter.com/ar_press/status/686517587123961856",
    "platform": "Tweet"
  },
  {
    "id": "MF0111",
    "link": "https://twitter.com/bbmpress/status/686502604306661376",
    "platform": "Tweet"
  },
  {
    "id": "MF0111",
    "link": "https://twitter.com/ResistanceTaiz/status/687752414422773760",
    "platform": "Tweet"
  },
  {
    "id": "MF0111",
    "link": "https://twitter.com/Tribuneofyemen/status/686637641064935425",
    "platform": "Tweet"
  },
  {
    "id": "MF0111",
    "link": "https://twitter.com/YT_POST/status/635511806644080640",
    "platform": "Tweet"
  },
  {
    "id": "MF0111",
    "link": "https://www.youtube.com/watch?v=0dTB6gA6WEA",
    "platform": "Video"
  },
  {
    "id": "MF0112",
    "link": "https://twitter.com/ALyemennow/status/875347545748328452",
    "platform": "Tweet"
  },
  {
    "id": "MF0112",
    "link": "https://twitter.com/assabeeldotnet/status/874957641721761797",
    "platform": "Tweet"
  },
  {
    "id": "MF0112",
    "link": "https://twitter.com/YZaatreh/status/874961030048296960",
    "platform": "Tweet"
  },
  {
    "id": "MF0112",
    "link": "https://www.youtube.com/watch?v=_2zEjW31vzA",
    "platform": "Video"
  },
  {
    "id": "MF0112",
    "link": "https://www.youtube.com/watch?v=NTTArZTaFCY",
    "platform": "Video"
  },
  {
    "id": "MF0113",
    "link": "https://www.youtube.com/watch?v=EkshgVM034E",
    "platform": "Video"
  },
  {
    "id": "MF0114",
    "link": "https://www.youtube.com/watch?v=fjyMJxG6M8A",
    "platform": "Video"
  },
  {
    "id": "MF0114",
    "link": "https://www.youtube.com/watch?v=HCP_YQYeH3o",
    "platform": "Video"
  },
  {
    "id": "MF0116",
    "link": "https://www.youtube.com/watch?v=PR05vyD7mHY",
    "platform": "Video"
  },
  {
    "id": "MF0117",
    "link": "https://www.youtube.com/watch?v=pnNPPyZVVlI",
    "platform": "Video"
  },
  {
    "id": "MF0118",
    "link": "https://www.youtube.com/watch?v=u4vnp6GTDGk",
    "platform": "Video"
  },
  {
    "id": "MF0119",
    "link": "https://twitter.com/EfgddGdrgf/status/626459170624016384",
    "platform": "Tweet"
  },
  {
    "id": "MF0119",
    "link": "https://twitter.com/rasd24net/status/626417978465083392",
    "platform": "Tweet"
  },
  {
    "id": "MF0119",
    "link": "https://twitter.com/yumroni/status/626439341003272193",
    "platform": "Tweet"
  },
  {
    "id": "MF0119",
    "link": "https://www.youtube.com/watch?v=Ztiq1X9RB3A",
    "platform": "Video"
  },
  {
    "id": "MF0120",
    "link": "https://www.youtube.com/watch?v=jhJwAtRSISc",
    "platform": "Video"
  },
  {
    "id": "MF0121",
    "link": "https://twitter.com/3J5D2nROX44N5yR/status/645716283762298880",
    "platform": "Tweet"
  },
  {
    "id": "MF0121",
    "link": "https://twitter.com/M_war_yemeni/status/645986308767092737",
    "platform": "Tweet"
  },
  {
    "id": "MF0121",
    "link": "https://twitter.com/naif9002/status/645703505227845632",
    "platform": "Tweet"
  },
  {
    "id": "MF0121",
    "link": "https://twitter.com/naif9002/status/645704197719986176",
    "platform": "Tweet"
  },
  {
    "id": "MF0121",
    "link": "https://twitter.com/sam__yemen/status/645704741851279360",
    "platform": "Tweet"
  },
  {
    "id": "MF0122",
    "link": "https://twitter.com/Abu_taha2017/status/607250353516453888",
    "platform": "Tweet"
  },
  {
    "id": "MF0122",
    "link": "https://twitter.com/AlMayadeenLive/status/607203664525193216",
    "platform": "Tweet"
  },
  {
    "id": "MF0122",
    "link": "https://twitter.com/almotamarnet/status/607253052689518592",
    "platform": "Tweet"
  },
  {
    "id": "MF0122",
    "link": "https://twitter.com/ansarollah2/status/607576880938668033",
    "platform": "Tweet"
  },
  {
    "id": "MF0122",
    "link": "https://twitter.com/shfinews/status/607254669275111425",
    "platform": "Tweet"
  },
  {
    "id": "MF0122",
    "link": "https://www.youtube.com/watch?v=vNiTFIp9P5o",
    "platform": "Video"
  },
  {
    "id": "MF0123",
    "link": "https://twitter.com/alqahoom3/status/614574356870602752",
    "platform": "Tweet"
  },
  {
    "id": "MF0123",
    "link": "https://twitter.com/Media_Front1/status/614574708726431744",
    "platform": "Tweet"
  },
  {
    "id": "MF0123",
    "link": "https://www.youtube.com/watch?v=T7HfuwcZpy8",
    "platform": "Video"
  },
  {
    "id": "MF0124",
    "link": "https://twitter.com/3ajellme/status/618181435665575936",
    "platform": "Tweet"
  },
  {
    "id": "MF0124",
    "link": "https://twitter.com/alyemenyj/status/618164715861094400",
    "platform": "Tweet"
  },
  {
    "id": "MF0124",
    "link": "https://twitter.com/rasd24net/status/618169721075077121",
    "platform": "Tweet"
  },
  {
    "id": "MF0124",
    "link": "https://www.youtube.com/watch?v=rDSFvtpNiWE",
    "platform": "Video"
  },
  {
    "id": "MF0125",
    "link": "https://twitter.com/aljahmi2002/status/702480748490723329",
    "platform": "Tweet"
  },
  {
    "id": "MF0125",
    "link": "https://twitter.com/Alrgif/status/702442342519873536",
    "platform": "Tweet"
  },
  {
    "id": "MF0125",
    "link": "https://twitter.com/futurefm7/status/702461236852576256",
    "platform": "Tweet"
  },
  {
    "id": "MF0125",
    "link": "https://twitter.com/hashmi_iman/status/702545567466049537",
    "platform": "Tweet"
  },
  {
    "id": "MF0125",
    "link": "https://twitter.com/hashmi_iman/status/702558475470159872",
    "platform": "Tweet"
  },
  {
    "id": "MF0125",
    "link": "https://twitter.com/homid95/status/702493710001504256",
    "platform": "Tweet"
  },
  {
    "id": "MF0125",
    "link": "https://twitter.com/m77730370/status/702478923859369984",
    "platform": "Tweet"
  },
  {
    "id": "MF0125",
    "link": "https://twitter.com/newshome_ye/status/702434105686933505",
    "platform": "Tweet"
  },
  {
    "id": "MF0125",
    "link": "https://twitter.com/thelinkyemen/status/702437399624867841",
    "platform": "Tweet"
  },
  {
    "id": "MF0126",
    "link": "https://twitter.com/Aalwosabi/status/603098418521575424",
    "platform": "Tweet"
  },
  {
    "id": "MF0126",
    "link": "https://twitter.com/GhorbaNewstweet/status/603112645911183360",
    "platform": "Tweet"
  },
  {
    "id": "MF0126",
    "link": "https://twitter.com/yepress/status/603106047109296128",
    "platform": "Tweet"
  },
  {
    "id": "MF0127",
    "link": "https://twitter.com/almaghz/status/629029620751273984",
    "platform": "Tweet"
  },
  {
    "id": "MF0127",
    "link": "https://twitter.com/almotamarnet/status/628981250020274176",
    "platform": "Tweet"
  },
  {
    "id": "MF0127",
    "link": "https://twitter.com/AlsahafyNet/status/629029621770510336",
    "platform": "Tweet"
  },
  {
    "id": "MF0127",
    "link": "https://www.youtube.com/watch?v=TgBVG24P4i8",
    "platform": "Video"
  },
  {
    "id": "MF0128",
    "link": "https://twitter.com/aluroobah/status/629663373437849600",
    "platform": "Tweet"
  },
  {
    "id": "MF0128",
    "link": "https://twitter.com/AnaaYemeni/status/629662184335736832",
    "platform": "Tweet"
  },
  {
    "id": "MF0128",
    "link": "https://twitter.com/rasd24net/status/629662886546149376",
    "platform": "Tweet"
  },
  {
    "id": "MF0128",
    "link": "https://twitter.com/shababunity/status/629673145088245761",
    "platform": "Tweet"
  },
  {
    "id": "MF0129",
    "link": "https://twitter.com/Algennie_A013/status/639671047072055296",
    "platform": "Tweet"
  },
  {
    "id": "MF0129",
    "link": "https://twitter.com/Beirut_Press/status/639719795047329792",
    "platform": "Tweet"
  },
  {
    "id": "MF0130",
    "link": "https://twitter.com/FuadFo6070606/status/646050655946174464",
    "platform": "Tweet"
  },
  {
    "id": "MF0133",
    "link": "https://twitter.com/almoayeded1/status/826103226206416896",
    "platform": "Tweet"
  },
  {
    "id": "MF0133",
    "link": "https://twitter.com/MagedYemeny/status/826102778837741569",
    "platform": "Tweet"
  },
  {
    "id": "MF0133",
    "link": "https://twitter.com/MasirahTV/status/826102684755361792",
    "platform": "Tweet"
  },
  {
    "id": "MF0133",
    "link": "https://twitter.com/mlak4422_m/status/826103131427786756",
    "platform": "Tweet"
  },
  {
    "id": "MF0133",
    "link": "https://twitter.com/sb8547/status/826110160879841281",
    "platform": "Tweet"
  },
  {
    "id": "MF0134",
    "link": "https://twitter.com/Agel_sanaa/status/940114970334892032",
    "platform": "Tweet"
  },
  {
    "id": "MF0134",
    "link": "https://twitter.com/almgdNews/status/940116037873426432",
    "platform": "Tweet"
  },
  {
    "id": "MF0134",
    "link": "https://twitter.com/AnsarAllahMC/status/940157503211524096",
    "platform": "Tweet"
  },
  {
    "id": "MF0134",
    "link": "https://twitter.com/nogaoado_Mazz/status/940142230051864576",
    "platform": "Tweet"
  },
  {
    "id": "MF0135",
    "link": "https://twitter.com/21septCom/status/955381646064279552",
    "platform": "Tweet"
  },
  {
    "id": "MF0135",
    "link": "https://twitter.com/Aljabhahnews/status/955375976241946624",
    "platform": "Tweet"
  },
  {
    "id": "MF0135",
    "link": "https://twitter.com/alwahdahnews/status/955432658774953985",
    "platform": "Tweet"
  },
  {
    "id": "MF0135",
    "link": "https://twitter.com/mansourshrapy/status/955503566399180810",
    "platform": "Tweet"
  },
  {
    "id": "MF0135",
    "link": "https://twitter.com/mhr_yemen2/status/955494005311188992",
    "platform": "Tweet"
  },
  {
    "id": "MF0135",
    "link": "https://twitter.com/saadahpress/status/955454014145073153",
    "platform": "Tweet"
  },
  {
    "id": "MF0135",
    "link": "https://www.youtube.com/watch?v=4rnuhL6k_V8",
    "platform": "Video"
  },
  {
    "id": "MF0135",
    "link": "https://www.youtube.com/watch?v=D7l6rv2VY8w",
    "platform": "Video"
  },
  {
    "id": "MF0135",
    "link": "https://www.youtube.com/watch?v=PfbTP5MVGpg",
    "platform": "Video"
  },
  {
    "id": "MF0135",
    "link": "https://www.youtube.com/watch?v=QEcdhsi4Nlk",
    "platform": "Video"
  },
  {
    "id": "MF0136",
    "link": "https://twitter.com/ali_hatemm/status/630571941078921216",
    "platform": "Tweet"
  },
  {
    "id": "MF0136",
    "link": "https://twitter.com/alshalfia/status/630571249392029700",
    "platform": "Tweet"
  },
  {
    "id": "MF0136",
    "link": "https://twitter.com/Alyemen_sound/status/630570749573509120",
    "platform": "Tweet"
  },
  {
    "id": "MF0136",
    "link": "https://twitter.com/m_alsallaly/status/630570475748327426",
    "platform": "Tweet"
  },
  {
    "id": "MF0136",
    "link": "https://twitter.com/saleh_algtaby/status/630749943603576833",
    "platform": "Tweet"
  },
  {
    "id": "MF0136",
    "link": "https://www.youtube.com/watch?v=FP8-7iVsyp8",
    "platform": "Video"
  },
  {
    "id": "MF0137",
    "link": "https://twitter.com/alkhalifi69XOXO/status/640533780231495681",
    "platform": "Tweet"
  },
  {
    "id": "MF0137",
    "link": "https://twitter.com/Fuadalsala/status/640321504052412416",
    "platform": "Tweet"
  },
  {
    "id": "MF0137",
    "link": "https://twitter.com/Nazeeha320000/status/640323375580233728",
    "platform": "Tweet"
  },
  {
    "id": "MF0137",
    "link": "https://twitter.com/RIYADH_MUTAHHIR/status/640318046834266112",
    "platform": "Tweet"
  },
  {
    "id": "MF0137",
    "link": "https://www.youtube.com/watch?v=nHGmtt6EfSs",
    "platform": "Video"
  },
  {
    "id": "MF0139",
    "link": "https://twitter.com/hudhwd/status/655448879765164032",
    "platform": "Tweet"
  },
  {
    "id": "MF0139",
    "link": "https://twitter.com/MasirahTV/status/655425403599876096",
    "platform": "Tweet"
  },
  {
    "id": "MF0141",
    "link": "https://twitter.com/AnsarAllahMC/status/748742962150928384",
    "platform": "Tweet"
  },
  {
    "id": "MF0141",
    "link": "https://twitter.com/MasirahTV/status/748731085836603392",
    "platform": "Tweet"
  },
  {
    "id": "MF0141",
    "link": "https://twitter.com/QawemOrg/status/748737092587364352",
    "platform": "Tweet"
  },
  {
    "id": "MF0146",
    "link": "https://www.youtube.com/watch?v=0tNzNO9vjN4",
    "platform": "Video"
  },
  {
    "id": "MF0146",
    "link": "https://www.youtube.com/watch?v=CSETwrP4lHM",
    "platform": "Video"
  },
  {
    "id": "MF0146",
    "link": "https://www.youtube.com/watch?v=mNxhwoKZxfQ",
    "platform": "Video"
  },
  {
    "id": "MF0146",
    "link": "https://www.youtube.com/watch?v=ugri_uh_KRs",
    "platform": "Video"
  },
  {
    "id": "MF0149",
    "link": "https://twitter.com/AJABreaking/status/708047175029268480",
    "platform": "Tweet"
  },
  {
    "id": "MF0149",
    "link": "https://twitter.com/akhbartaiz2015/status/708048737785012224",
    "platform": "Tweet"
  },
  {
    "id": "MF0149",
    "link": "https://twitter.com/ALyemennow/status/708080589501538304",
    "platform": "Tweet"
  },
  {
    "id": "MF0149",
    "link": "https://twitter.com/makarem1970/status/708044905654968320",
    "platform": "Tweet"
  },
  {
    "id": "MF0149",
    "link": "https://twitter.com/msalsharabi/status/708043651167985664",
    "platform": "Tweet"
  },
  {
    "id": "MF0149",
    "link": "https://twitter.com/Newsyamen/status/708042367497052160",
    "platform": "Tweet"
  },
  {
    "id": "MF0149",
    "link": "https://twitter.com/TaizNewsNetwork/status/708040521361563648",
    "platform": "Tweet"
  },
  {
    "id": "MF0150",
    "link": "https://twitter.com/24ComEg/status/863838866565877761",
    "platform": "Tweet"
  },
  {
    "id": "MF0150",
    "link": "https://twitter.com/7adramout_net/status/863837854350192640",
    "platform": "Tweet"
  },
  {
    "id": "MF0150",
    "link": "https://twitter.com/SalmAbeer/status/864135407843155968",
    "platform": "Tweet"
  },
  {
    "id": "MF0150",
    "link": "https://twitter.com/Xt7Qd0m/status/863847200698269697",
    "platform": "Tweet"
  },
  {
    "id": "MF0150",
    "link": "https://twitter.com/yepress/status/863837089137176576",
    "platform": "Tweet"
  },
  {
    "id": "MF0151",
    "link": "https://www.youtube.com/watch?v=Ozmlv6JScJo",
    "platform": "Video"
  },
  {
    "id": "MF0155",
    "link": "https://twitter.com/AbdullahAbuobad/status/1029090612962844673",
    "platform": "Tweet"
  },
  {
    "id": "MF0155",
    "link": "https://twitter.com/ghani774/status/1028734516272287749",
    "platform": "Tweet"
  },
  {
    "id": "MF0155",
    "link": "https://twitter.com/mhmeyemen/status/1029548808110317568",
    "platform": "Tweet"
  },
  {
    "id": "MF0155",
    "link": "https://twitter.com/mtahir2/status/1028611399474397184",
    "platform": "Tweet"
  },
  {
    "id": "MF0155",
    "link": "https://twitter.com/sadaalmawakea/status/1028835037431689217",
    "platform": "Tweet"
  },
  {
    "id": "MF0155",
    "link": "https://twitter.com/suhailchannel/status/1029622832802803712",
    "platform": "Tweet"
  },
  {
    "id": "MF0155",
    "link": "https://twitter.com/taizcity/status/1028669740066254848",
    "platform": "Tweet"
  },
  {
    "id": "MF0155",
    "link": "https://twitter.com/TaizNewsNetwork/status/1029501361216516097",
    "platform": "Tweet"
  },
  {
    "id": "MF0155",
    "link": "https://twitter.com/YxF3SIdO8LAMtc8/status/1029745587556626432",
    "platform": "Tweet"
  },
  {
    "id": "MF0156",
    "link": "https://twitter.com/albaghran_zcvx2/status/1026016755876077568",
    "platform": "Tweet"
  },
  {
    "id": "MF0156",
    "link": "https://twitter.com/ALIALASMAR07/status/1026937023578472448",
    "platform": "Tweet"
  },
  {
    "id": "MF0156",
    "link": "https://twitter.com/RepublicanYemen/status/1026011744014086145",
    "platform": "Tweet"
  },
  {
    "id": "MF0156",
    "link": "https://twitter.com/Southern_Mosque/status/1025745851568803841",
    "platform": "Tweet"
  },
  {
    "id": "MF0156",
    "link": "https://twitter.com/suhailchannel/status/1026007176194736129",
    "platform": "Tweet"
  },
  {
    "id": "MF0156",
    "link": "https://twitter.com/yemenpost_co/status/1025843507842506753",
    "platform": "Tweet"
  },
  {
    "id": "MF0157",
    "link": "https://twitter.com/ezimedo/status/459456169350664193",
    "platform": "Tweet"
  },
  {
    "id": "MF0157",
    "link": "https://twitter.com/hafizriban/status/459432338108481536",
    "platform": "Tweet"
  },
  {
    "id": "MF0157",
    "link": "https://twitter.com/Monny_Bahri/status/459319807159328768",
    "platform": "Tweet"
  },
  {
    "id": "MF0157",
    "link": "https://twitter.com/shaharahnet/status/459436920007704576",
    "platform": "Tweet"
  },
  {
    "id": "MF0158",
    "link": "https://twitter.com/2626sept/status/1111346803708968961",
    "platform": "Tweet"
  },
  {
    "id": "MF0158",
    "link": "https://twitter.com/Al_hadathNow/status/1111425707484184576",
    "platform": "Tweet"
  },
  {
    "id": "MF0159",
    "link": "https://twitter.com/akaljabry/status/1014914080581324801",
    "platform": "Tweet"
  },
  {
    "id": "MF0159",
    "link": "https://twitter.com/AlfarooqYe/status/1014963803249836034",
    "platform": "Tweet"
  },
  {
    "id": "MF0159",
    "link": "https://twitter.com/Amerahalsanane/status/1014914004429496320",
    "platform": "Tweet"
  },
  {
    "id": "MF0159",
    "link": "https://twitter.com/M_Almoradi/status/1014960799645884417",
    "platform": "Tweet"
  },
  {
    "link": "https://twitter.com/baseem_aljenani/status/778657427289935872",
    "platform": "Tweet"
  }
]
