<?xml version="1.0" encoding="UTF-8" standalone="no"?>
<svg
   xmlns:dc="http://purl.org/dc/elements/1.1/"
   xmlns:cc="http://creativecommons.org/ns#"
   xmlns:rdf="http://www.w3.org/1999/02/22-rdf-syntax-ns#"
   xmlns:svg="http://www.w3.org/2000/svg"
   xmlns="http://www.w3.org/2000/svg"
   xmlns:sodipodi="http://sodipodi.sourceforge.net/DTD/sodipodi-0.dtd"
   xmlns:inkscape="http://www.inkscape.org/namespaces/inkscape"
   width="246px"
   height="60px"
   viewBox="0 0 246 60"
   version="1.1"
   id="svg29"
   sodipodi:docname="Group 11@1x.svg"
   inkscape:version="0.92.4 5da689c313, 2019-01-14">
  <metadata
     id="metadata35">
    <rdf:RDF>
      <cc:Work
         rdf:about="">
        <dc:format>image/svg+xml</dc:format>
        <dc:type
           rdf:resource="http://purl.org/dc/dcmitype/StillImage" />
      </cc:Work>
    </rdf:RDF>
  </metadata>
  <defs
     id="defs33" />
  <sodipodi:namedview
     pagecolor="#ffffff"
     bordercolor="#666666"
     borderopacity="1"
     objecttolerance="10"
     gridtolerance="10"
     guidetolerance="10"
     inkscape:pageopacity="0"
     inkscape:pageshadow="2"
     inkscape:window-width="3840"
     inkscape:window-height="2098"
     id="namedview31"
     showgrid="false"
     inkscape:zoom="8.9911789"
     inkscape:cx="135.05687"
     inkscape:cy="40.479926"
     inkscape:window-x="0"
     inkscape:window-y="62"
     inkscape:window-maximized="1"
     inkscape:current-layer="Group-11" />
  <!-- Generator: Sketch 55.2 (78181) - https://sketchapp.com -->
  <title
     id="title2">Group 11@1x</title>
  <desc
     id="desc4">Created with Sketch.</desc>
  <g
     id="Page-1"
     stroke="none"
     stroke-width="1"
     fill="none"
     fill-rule="evenodd">
    <g
       id="Yemeni-Archive-Medical-Facilities-"
       transform="translate(-56.000000, -18.000000)">
      <g
         id="Group-11"
         transform="translate(56.000000, 18.000000)">
        <g
           id="Group-35">
          <path
             d="M31.2408462,47.5289712 L31.2342115,47.5289712 C30.5459423,47.5289712 29.9828654,46.971375 29.9828654,46.2833942 C29.9828654,45.595125 30.5352692,45.0372404 31.2235385,45.0372404 C31.9112308,45.0372404 32.4777692,45.595125 32.4777692,46.2833942 C32.4777692,46.971375 31.9288269,47.5289712 31.2408462,47.5289712 L31.2408462,47.5289712 Z M27.9353654,47.0994519 C27.8263269,47.0994519 27.7155577,47.0847404 27.6053654,47.0547404 C26.9459423,46.8839712 26.5446923,46.2144519 26.70825,45.5509904 C26.8726731,44.8829135 27.5473846,44.4741635 28.2154615,44.6391635 C28.227,44.6420481 28.2555577,44.6495481 28.2670962,44.6527212 C28.9302692,44.8361827 29.3188269,45.5227212 29.1353654,46.1858942 C28.9827692,46.7374327 28.4814231,47.0994519 27.9353654,47.0994519 L27.9353654,47.0994519 Z M27.9055817,46.1224327 L27.8994519,46.1476731 L27.9787788,45.8606538 L27.9055817,46.1224327 Z M37.6120962,45.8258942 C37.1733462,45.8258942 36.7475769,45.5933942 36.5208462,45.1820481 C36.18825,44.5791635 36.4071923,43.821375 37.0095,43.4893558 C37.6031538,43.1411827 38.3600769,43.3439712 38.7073846,43.937625 C39.0558462,44.5312788 38.8498846,45.2980096 38.2562308,45.6458942 C38.2467115,45.651375 38.2224808,45.6657981 38.21325,45.6707019 C38.0225769,45.7759904 37.8160385,45.8258942 37.6120962,45.8258942 L37.6120962,45.8258942 Z M24.8517115,45.823875 C24.6376731,45.823875 24.42075,45.7690673 24.2228654,45.6528173 L24.8528654,44.5780096 L24.2159423,45.6487788 C23.6199808,45.3049327 23.4151731,44.5428173 23.7590192,43.9471442 C24.1025769,43.3514712 24.8641154,43.1469519 25.4597885,43.4896442 C25.4626731,43.491375 25.4805577,43.5017596 25.4828654,43.5034904 C26.0765192,43.8510865 26.2758462,44.6146442 25.9279615,45.2080096 C25.69575,45.6037788 25.2797885,45.823875 24.8517115,45.823875 L24.8517115,45.823875 Z M40.257,43.7974327 C39.9385385,43.7974327 39.6197885,43.6757019 39.3763269,43.4328173 C38.8899808,42.9461827 38.8899808,42.1572404 39.3763269,41.6706058 C39.8629615,41.1845481 40.6579615,41.1782019 41.1445962,41.6645481 C41.6309423,42.1511827 41.637,42.9337788 41.1506538,43.4204135 L41.13825,43.4328173 C40.8950769,43.6757019 40.5760385,43.7974327 40.257,43.7974327 L40.257,43.7974327 Z M22.2047885,43.7931058 C21.8866154,43.7931058 21.5690192,43.6719519 21.3258462,43.4290673 C21.3252692,43.4282019 21.3215192,43.4244519 21.3206538,43.4235865 C20.8239231,42.947625 20.81325,42.1647404 21.2892115,41.6677212 C21.7651731,41.1712788 22.5595962,41.1600288 23.0566154,41.6362788 C23.0635385,41.6429135 23.0802692,41.6590673 23.0871923,41.6665673 C23.5718077,42.1537788 23.5718077,42.9430096 23.0851731,43.4284904 C22.8417115,43.671375 22.52325,43.7931058 22.2047885,43.7931058 L22.2047885,43.7931058 Z M42.2909423,41.1554135 C42.0769038,41.1554135 41.8599808,41.1006058 41.6618077,40.9843558 C41.0684423,40.6361827 40.8694038,39.8732019 41.2172885,39.2795481 C41.5651731,38.6858942 42.3327692,38.4790673 42.9264231,38.8275288 C43.5200769,39.1754135 43.7237308,39.9308942 43.3755577,40.5242596 L43.3669038,40.5395481 C43.1349808,40.9353173 42.7187308,41.1554135 42.2909423,41.1554135 L42.2909423,41.1554135 Z M20.1650769,41.1458942 C19.74075,41.1458942 19.3294038,40.9289712 19.0986346,40.5357981 C19.0963269,40.5308942 19.0847885,40.5115673 19.0819038,40.5069519 C18.7418077,39.9086827 18.9509423,39.1480096 19.5486346,38.807625 C20.1463269,38.4672404 20.907,38.676375 21.2473846,39.2743558 C21.5863269,39.8697404 21.3849808,40.6344519 20.7921923,40.9771442 C20.5940192,41.091375 20.3779615,41.1458942 20.1650769,41.1458942 L20.1650769,41.1458942 Z M43.5743077,38.076375 C43.4770962,38.076375 43.3784423,38.0648365 43.2797885,38.0408942 C42.6111346,37.8787788 42.2006538,37.2055096 42.3624808,36.5365673 C42.3662308,36.5221442 42.3745962,36.4907019 42.3786346,36.4762788 C42.5649808,35.8136827 43.2535385,35.4277212 43.9149808,35.6146442 C44.5752692,35.800125 44.9606538,36.4840673 44.7789231,37.1443558 C44.6335385,37.7028173 44.1290192,38.076375 43.5743077,38.076375 L43.5743077,38.076375 Z M43.7473486,36.8873005 L43.7552812,36.8894639 L43.5984303,36.845113 L43.7473486,36.8873005 Z M18.8929615,38.072625 C18.342,38.072625 17.8377692,37.7045481 17.6895,37.146375 L18.8938269,36.8267596 L17.6874808,37.1377212 C17.5066154,36.4739712 17.8977692,35.788875 18.5618077,35.6080096 C19.2246923,35.4259904 19.9100769,35.8182981 20.0912308,36.4820481 C20.0918077,36.4846442 20.097,36.5045481 20.0975769,36.5068558 C20.2744038,37.1720481 19.8786346,37.8542596 19.2137308,38.0310865 C19.1067115,38.0593558 18.9988269,38.072625 18.8929615,38.072625 L18.8929615,38.072625 Z M44.0095962,34.7708942 C43.3219038,34.7708942 42.7640192,34.2132981 42.7640192,33.5247404 L42.7640192,33.5111827 L42.7640192,33.497625 C42.7640192,32.8093558 43.3219038,32.2428173 44.0095962,32.2428173 C44.6975769,32.2428173 45.2551731,32.7920481 45.2551731,33.4797404 L45.2551731,33.497625 L45.2551731,33.5022404 L45.2551731,33.5074327 L45.2551731,33.5247404 C45.2551731,34.2132981 44.6975769,34.7708942 44.0095962,34.7708942 L44.0095962,34.7708942 Z M18.45825,34.7671442 C17.7699808,34.7671442 17.2123846,34.2095481 17.2123846,33.5212788 L18.45825,33.5212788 L17.2123846,33.5195481 C17.2123846,32.8312788 17.7699808,32.2656058 18.45825,32.2656058 C19.1462308,32.2656058 19.7041154,32.8154135 19.7041154,33.5036827 L19.7041154,33.5212788 C19.7041154,34.2095481 19.1462308,34.7671442 18.45825,34.7671442 L18.45825,34.7671442 Z M18.8854615,31.4518558 C18.7793077,31.4518558 18.672,31.4380096 18.5649808,31.4091635 C17.9023846,31.2311827 17.5066154,30.5584904 17.6825769,29.8950288 C17.6834423,29.8927212 17.6886346,29.8728173 17.6892115,29.8702212 C17.8700769,29.2064712 18.5545962,28.8141635 19.2189231,28.9961827 C19.8829615,29.1770481 20.2741154,29.8621442 20.09325,30.5258942 C19.9415192,31.0808942 19.4358462,31.4518558 18.8854615,31.4518558 L18.8854615,31.4518558 Z M20.1587308,28.3782981 C19.9449808,28.3782981 19.7280577,28.3234904 19.5301731,28.2075288 C18.9365192,27.8590673 18.7371923,27.0960865 19.0850769,26.5024327 L20.1601731,27.1324327 L19.0876731,26.4981058 C19.4320962,25.9053173 20.1930577,25.6987788 20.7875769,26.0408942 C21.3820962,26.3824327 21.5906538,27.1373365 21.2517115,27.7335865 C21.2488269,27.7382019 21.2375769,27.7578173 21.2346923,27.7624327 C21.0027692,28.1582019 20.5865192,28.3782981 20.1587308,28.3782981 L20.1587308,28.3782981 Z M42.2972885,28.3581058 C41.8579615,28.3581058 41.4324808,28.1256058 41.2051731,27.7139712 C40.8572885,27.1203173 41.0603654,26.3639712 41.6540192,26.0160865 C42.2476731,25.6682019 43.0144038,25.8735865 43.3622885,26.4672404 C43.3677692,26.4767596 43.3816154,26.5012788 43.3870962,26.5105096 C43.7191154,27.1131058 43.5001731,27.8706058 42.8978654,28.2032019 C42.7069038,28.3082019 42.5009423,28.3581058 42.2972885,28.3581058 L42.2972885,28.3581058 Z M22.1889231,25.7290673 C21.8745,25.7290673 21.5597885,25.6107981 21.3177692,25.3736827 C20.8265192,24.8919519 20.8172885,24.1050288 21.2981538,23.6137788 C21.3076731,23.6042596 21.3293077,23.582625 21.3388269,23.5736827 C21.8358462,23.0977212 22.6245,23.1141635 23.1004615,23.6108942 C23.5726731,24.1035865 23.5596923,24.8841635 23.0745,25.3612788 C22.83075,25.6061827 22.5099808,25.7290673 22.1889231,25.7290673 L22.1889231,25.7290673 Z M40.2633462,25.7152212 C39.9448846,25.7152212 39.6258462,25.5934904 39.3826731,25.3506058 C38.89575,24.8639712 38.8899808,24.0686827 39.3763269,23.5823365 C39.8629615,23.0957019 40.6458462,23.0902212 41.1321923,23.5759904 L41.1445962,23.5883942 C41.6309423,24.0753173 41.6309423,24.8639712 41.1445962,25.3506058 C40.9011346,25.5934904 40.5823846,25.7152212 40.2633462,25.7152212 L40.2633462,25.7152212 Z M24.8228654,23.7029135 C24.3956538,23.7029135 23.9808462,23.4807981 23.7480577,23.0841635 C23.4004615,22.4907981 23.6061346,21.7234904 24.1997885,21.3758942 C24.2087308,21.3704135 24.2335385,21.3562788 24.2430577,21.3510865 C24.8450769,21.0184904 25.6031538,21.2377212 25.93575,21.8400288 C26.2680577,22.442625 26.0488269,23.200125 25.4465192,23.5327212 C25.2495,23.6481058 25.0345962,23.7029135 24.8228654,23.7029135 L24.8228654,23.7029135 Z M37.6224808,23.6856058 C37.4168077,23.6856058 37.20825,23.635125 37.0161346,23.5295481 C37.0069038,23.5240673 36.9820962,23.5099327 36.9731538,23.5047404 C36.3795,23.1568558 36.1801731,22.393875 36.5280577,21.7999327 C36.8759423,21.2068558 37.6392115,21.0072404 38.2328654,21.355125 L37.6031538,22.4302212 L38.2351731,21.3562788 C38.8374808,21.688875 39.0486346,22.442625 38.7166154,23.0449327 C38.4901731,23.455125 38.0626731,23.6856058 37.6224808,23.6856058 L37.6224808,23.6856058 Z M27.9108462,22.4134904 C27.3639231,22.4134904 26.8617115,22.0520481 26.7091154,21.4996442 C26.5262308,20.8370481 26.9127692,20.1516635 27.5753654,19.9682019 C27.5871923,19.9650288 27.6154615,19.9575288 27.627,19.9546442 C28.2956538,19.7896442 28.9703654,20.1983942 29.1342115,20.8667596 C29.2977692,21.5302212 28.8962308,22.2008942 28.2356538,22.3705096 C28.1274808,22.3999327 28.0184423,22.4134904 27.9108462,22.4134904 L27.9108462,22.4134904 Z M34.5376731,22.408875 C34.4404615,22.408875 34.3418077,22.3973365 34.2431538,22.3733942 C34.2287308,22.3702212 34.1972885,22.3618558 34.1828654,22.3578173 C33.5199808,22.1714712 33.1345962,21.4834904 33.3209423,20.8208942 C33.5064231,20.1611827 34.1909423,19.7760865 34.8509423,19.9575288 C35.5071923,20.1280096 35.9081538,20.7943558 35.7474808,21.456375 C35.6093077,22.026375 35.0995962,22.408875 34.5376731,22.408875 L34.5376731,22.408875 Z M34.5960865,21.052637 L34.551375,21.2102091 L34.5960865,21.052637 Z M31.2310385,21.9773365 C30.5427692,21.9773365 29.9762308,21.4194519 29.9762308,20.7317596 C29.9762308,20.0437788 30.5251731,19.4861827 31.2131538,19.4861827 L31.2310385,19.4861827 C31.9187308,19.4861827 32.4766154,20.0437788 32.4766154,20.7317596 C32.4766154,21.4194519 31.9187308,21.9773365 31.2310385,21.9773365 L31.2310385,21.9773365 Z"
             id="Fill-1"
             fill="#B32C50" />
          <path
             d="M32.2253942,43.9501442 C31.5867404,43.9501442 31.0429904,43.4617788 30.985875,42.8138942 C30.9252981,42.1285096 31.4318365,41.5238942 32.1172212,41.4636058 C32.8026058,41.4024519 33.4161635,41.9087019 33.4764519,42.5940865 C33.5370288,43.2797596 33.0391442,43.8832212 32.3537596,43.9435096 L32.3361635,43.9452404 C32.2989519,43.9484135 32.2620288,43.9501442 32.2253942,43.9501442 L32.2253942,43.9501442 Z M28.8705865,43.6414904 C28.762125,43.6414904 28.6522212,43.6270673 28.5426058,43.5973558 L28.4918365,43.5829327 C27.8332788,43.3833173 27.4614519,42.6875481 27.6607788,42.0289904 C27.8589519,41.3750481 28.5463558,41.0029327 29.2020288,41.1944712 C29.8614519,41.3790865 30.2505865,42.0624519 30.0697212,42.7236058 C29.9179904,43.2771635 29.4177981,43.6414904 28.8705865,43.6414904 L28.8705865,43.6414904 Z M35.4878942,43.0285099 C35.0425096,43.0287981 34.6115481,42.7890865 34.3877019,42.3687981 C34.0637596,41.761875 34.2936635,41.0069712 34.9005865,40.6836058 C34.9115481,40.6775481 34.9343365,40.6660096 34.9455865,40.6602404 C35.5605865,40.3553365 36.3091442,40.6048558 36.6157788,41.2201442 C36.9224135,41.8354327 36.6743365,42.5813942 36.059625,42.8888942 C36.059625,42.8888942 36.0581827,42.8897596 36.0567404,42.8903365 C35.8747212,42.9837981 35.6800096,43.0285099 35.4878942,43.0285099 L35.4878942,43.0285099 Z M25.8351058,42.133125 C25.5714519,42.133125 25.3054904,42.0497596 25.0799135,41.8775481 L25.8356827,40.8872596 L25.0761635,41.8746635 C24.5298173,41.4607212 24.4170288,40.6804327 24.8280865,40.1323558 C25.2391442,39.5837019 26.0125096,39.4677404 26.5634712,39.8753365 L26.5917404,39.8972596 C27.1389519,40.3149519 27.2436635,41.0966827 26.8259712,41.6433173 C26.5807788,41.9646635 26.2101058,42.133125 25.8351058,42.133125 L25.8351058,42.133125 Z M38.1910673,40.9937019 C37.8968365,40.9937019 37.6020288,40.8901442 37.3640481,40.6792788 C36.8482788,40.2232212 36.8032788,39.4325481 37.2593365,38.9173558 L37.2876058,38.8859135 C37.7531827,38.3799519 38.5418365,38.3467788 39.0477981,38.8126442 C39.5543365,39.2785096 39.5869327,40.0665865 39.1213558,40.5728365 L38.204625,39.7296635 L39.1193365,40.5751442 C38.8741442,40.8523558 38.5331827,40.9937019 38.1910673,40.9937019 L38.1910673,40.9937019 Z M23.5401058,39.6275481 C23.1267404,39.6275481 22.7249135,39.421875 22.4901058,39.0437019 L22.480875,39.0289904 C22.1179904,38.4442788 22.2977019,37.6761058 22.8824135,37.3135096 C23.4668365,36.9503365 24.2352981,37.1300481 24.5976058,37.7147596 C24.9607788,38.2991827 24.7856827,39.0751442 24.2009712,39.4377404 C23.9944327,39.5658173 23.7656827,39.6275481 23.5401058,39.6275481 L23.5401058,39.6275481 Z M39.9829904,38.1119712 C39.8266442,38.1119712 39.6679904,38.0822596 39.5142404,38.0199519 C38.8804904,37.7629327 38.5735673,37.0432212 38.8245288,36.4086058 C39.0691442,35.7687981 39.7853942,35.4445673 40.4269327,35.6854327 C41.0707788,35.9274519 41.3973173,36.643125 41.1561635,37.2866827 L41.137125,37.3348558 C40.9409712,37.8188942 40.4745288,38.1119712 39.9829904,38.1119712 L39.9829904,38.1119712 Z M22.3155865,36.4726442 C21.7305865,36.4726442 21.2090481,36.0604327 21.0951058,35.4638942 L21.089625,35.4353365 C20.9670288,34.7583173 21.4155865,34.1101442 22.0928942,33.9869712 C22.769625,33.8626442 23.4180865,34.3129327 23.5412596,34.9896635 C23.6704904,35.6655288 23.2279904,36.3212019 22.552125,36.4504327 C22.4727981,36.4657212 22.3934712,36.4726442 22.3155865,36.4726442 L22.3155865,36.4726442 Z M40.6095288,34.7811058 C39.9218365,34.7811058 39.3639519,34.2232212 39.3639519,33.5352404 L39.3639519,33.5187981 C39.3636635,33.5121635 39.3636635,33.5052404 39.3636635,33.4983173 L39.3636635,33.4804327 C39.3636635,32.7921635 39.9212596,32.2342788 40.6095288,32.2342788 C41.2975096,32.2342788 41.8551058,32.7921635 41.8551058,33.4804327 L41.8551058,33.4965865 C41.8556827,33.5035096 41.8556827,33.5107212 41.8556827,33.5176442 L41.8556827,33.5352404 C41.8556827,34.2232212 41.2977981,34.7811058 40.6095288,34.7811058 L40.6095288,34.7811058 Z M22.3138558,33.0912981 C22.2414519,33.0912981 22.1684712,33.0849519 22.0949135,33.0719712 C21.4173173,32.9525481 20.9652981,32.3026442 21.0852981,31.6250481 L21.0930865,31.5832212 C21.2260673,30.9082212 21.8811635,30.4697596 22.555875,30.6015865 C23.230875,30.7348558 23.6704904,31.3899519 23.5375096,32.0649519 C23.4310673,32.6687019 22.9063558,33.0912981 22.3138558,33.0912981 L22.3138558,33.0912981 Z M39.9832788,31.4147596 C39.4917404,31.4147596 39.0252981,31.1213942 38.8288558,30.6376442 L38.8101058,30.5891827 C38.568375,29.9453365 38.894625,29.2267788 39.5390481,28.985625 C40.1823173,28.7447596 40.9000096,29.0692788 41.1420288,29.7122596 C41.392125,30.346875 41.0852019,31.0657212 40.4517404,31.3227404 C40.2979904,31.3850481 40.1393365,31.4147596 39.9832788,31.4147596 L39.9832788,31.4147596 Z M40.3102861,30.0762981 L39.979637,30.2003365 L40.3102861,30.0762981 Z M23.5279904,29.9254327 C23.3035673,29.9254327 23.0768365,29.8645673 22.8723173,29.7379327 C22.2878942,29.3750481 22.1076058,28.6065865 22.4707788,28.0224519 L23.5291442,28.6792788 L22.4727981,28.0187019 C22.8322212,27.4354327 23.5977981,27.2473558 24.183375,27.6036058 C24.7686635,27.9595673 24.9590481,28.7173558 24.6068365,29.3049519 L24.5877981,29.3363942 C24.3518365,29.7162981 23.9445288,29.9254327 23.5279904,29.9254327 L23.5279904,29.9254327 Z M38.1930865,28.5379327 C37.8486635,28.5379327 37.5056827,28.3962981 37.2593365,28.1179327 C36.7934712,27.6113942 36.8286635,26.825625 37.3352019,26.3600481 C37.8411635,25.8938942 38.6315481,25.9290865 39.0974135,26.435625 L39.1256827,26.4670673 C39.5817404,26.9822596 39.5332788,27.7697596 39.0177981,28.2252404 C38.7809712,28.4352404 38.4864519,28.5379327 38.1930865,28.5379327 L38.1930865,28.5379327 Z M25.8088558,27.4135096 C25.4370288,27.4135096 25.0695288,27.2487981 24.8243365,26.9326442 C24.4026058,26.3894712 24.4989519,25.6086058 25.0418365,25.1865865 C25.057125,25.1747596 25.0727019,25.1626442 25.0879904,25.1516827 C25.6444327,24.7466827 26.4235673,24.8698558 26.8285673,25.4262981 C27.2298173,25.9787019 27.112125,26.7494712 26.5666442,27.1570673 C26.3407788,27.3301442 26.0736635,27.4135096 25.8088558,27.4135096 L25.8088558,27.4135096 Z M35.4855865,26.4985096 C35.294625,26.4985096 35.1007788,26.4546635 34.9193365,26.3617788 C34.3080865,26.0583173 34.0527981,25.3172596 34.3510673,24.7019712 C34.6507788,24.0832212 35.3944327,23.8238942 36.0128942,24.1233173 C36.033375,24.1328365 36.0529904,24.1426442 36.0726058,24.1533173 C36.6798173,24.4769712 36.9094327,25.231875 36.5857788,25.8385096 C36.3616442,26.2590865 35.9306827,26.4985096 35.4855865,26.4985096 L35.4855865,26.4985096 Z M28.8342404,25.8962019 C28.2861635,25.8962019 27.7842404,25.5315865 27.6330865,24.9777404 C27.4525096,24.3154327 27.8416442,23.6317788 28.5025096,23.4491827 C29.155875,23.259375 29.842125,23.6265865 30.0428942,24.2785096 C30.2448173,24.9364904 29.875875,25.6334135 29.2181827,25.835625 C29.2000096,25.8413942 29.1812596,25.8465865 29.1627981,25.8514904 C29.0528942,25.8814904 28.9427019,25.8962019 28.8342404,25.8962019 L28.8342404,25.8962019 Z M28.8150577,24.4816947 L28.8770769,24.7084976 L28.8150577,24.4816947 Z M32.227125,25.5762981 C32.1902019,25.5762981 32.1529904,25.5745673 32.1157788,25.5713942 C31.4303942,25.5111058 30.9152019,24.9059135 30.9757788,24.2205288 C31.0363558,23.5348558 31.6334712,23.0277404 32.3174135,23.0880288 L32.3350096,23.0897596 C33.0203942,23.1500481 33.5266442,23.7546635 33.4663558,24.4400481 C33.4089519,25.0879327 32.8652019,25.5762981 32.227125,25.5762981 L32.227125,25.5762981 Z"
             id="Fill-3"
             fill="#B32C50" />
          <path
             d="M29.4229904,50.7085962 C29.3753942,50.7085962 29.3272212,50.7057115 29.2787596,50.7002308 C28.6011635,50.6321538 28.1027019,50.0315769 28.1624135,49.3510962 C28.2232788,48.666 28.8264519,48.1591731 29.5129904,48.21975 L29.5672212,48.2252308 C30.2500096,48.3057115 30.7389519,48.9250385 30.6587596,49.6084038 C30.5840481,50.2421538 30.0460673,50.7085962 29.4229904,50.7085962 L29.4229904,50.7085962 Z M29.428363,49.7408798 L29.4258389,49.7672019 L29.4608149,49.4686442 L29.428363,49.7408798 Z M32.7974135,50.7085962 C32.1587596,50.7085962 31.6150096,50.2202308 31.5581827,49.5720577 C31.4978942,48.8912885 31.9972212,48.2901346 32.6756827,48.2232115 C33.3552981,48.1496538 33.9723173,48.636 34.0516442,49.3161923 C34.1315481,49.9995577 33.6452019,50.6177308 32.9624135,50.6979231 L32.9081827,50.7036923 C32.8709712,50.7068654 32.8343365,50.7085962 32.7974135,50.7085962 L32.7974135,50.7085962 Z M26.0987596,50.0079231 C25.9677981,50.0079231 25.8345288,49.9868654 25.7035673,49.9430192 C25.0556827,49.7367692 24.6913558,49.0479231 24.8892404,48.3951346 C25.0888558,47.7365769 25.7840481,47.3641731 26.4428942,47.5637885 C26.4616442,47.5695577 26.4798173,47.5759038 26.4979904,47.5816731 C27.1499135,47.8020577 27.4995288,48.5093654 27.2788558,49.161 C27.1028942,49.6802308 26.6182788,50.0079231 26.0987596,50.0079231 L26.0987596,50.0079231 Z M26.0714639,48.9844255 L26.0660553,49.0006514 L26.142137,48.7752909 L26.0714639,48.9844255 Z M36.1204904,50.0079231 C35.5862596,50.0079231 35.0915481,49.6611923 34.9288558,49.1229231 C34.7312596,48.4707115 35.0941442,47.7824423 35.7411635,47.5753269 C36.389625,47.3584038 37.0928942,47.7054231 37.3147212,48.3524423 C37.5377019,49.0026346 37.1932788,49.7105192 36.5430865,49.9343654 C36.5286635,49.9392692 36.4966442,49.9493654 36.4822212,49.9536923 C36.3619327,49.9906154 36.2402019,50.0079231 36.1204904,50.0079231 L36.1204904,50.0079231 Z M39.224625,48.6273462 C38.7904904,48.6273462 38.3690481,48.4003269 38.1397212,47.9956154 C37.8004904,47.3967692 38.0107788,46.6366731 38.6090481,46.2974423 C39.2027019,45.9495577 39.9656827,46.1491731 40.3135673,46.7425385 C40.6614519,47.3356154 40.4624135,48.0991731 39.8687596,48.4476346 C39.8632788,48.4505192 39.8427981,48.4623462 39.8378942,48.4652308 C39.6434712,48.5751346 39.4328942,48.6273462 39.224625,48.6273462 L39.224625,48.6273462 Z M22.9949135,48.6267692 C22.7837596,48.6267692 22.5700096,48.5731154 22.3741442,48.4603269 L22.3660673,48.4557115 C21.7675096,48.1164808 21.5572212,47.3563846 21.8964519,46.7578269 C22.2356827,46.1592692 22.9957788,45.9489808 23.5949135,46.2885 L23.6179904,46.3017692 C24.2142404,46.6450385 24.4187596,47.4068654 24.0754904,48.0028269 C23.8447212,48.4029231 23.425875,48.6267692 22.9949135,48.6267692 L22.9949135,48.6267692 Z M41.9707788,46.6317692 C41.6263558,46.6317692 41.283375,46.4895577 41.0370288,46.2114808 C40.5812596,45.696 40.6294327,44.9090769 41.1449135,44.4530192 C41.6505865,43.9871538 42.4369327,44.0220577 42.9025096,44.5285962 C43.368375,45.0348462 43.3331827,45.8249423 42.8269327,46.2908077 L42.7954904,46.3190769 C42.5586635,46.5287885 42.2641442,46.6317692 41.9707788,46.6317692 L41.9707788,46.6317692 Z M20.2455865,46.62975 C19.9490481,46.62975 19.6519327,46.5244615 19.4142404,46.3098462 L19.3920288,46.2896538 C18.8854904,45.8240769 18.8528942,45.0357115 19.3184712,44.5291731 C19.784625,44.0232115 20.5724135,43.9906154 21.0789519,44.4561923 C21.5898173,44.9168654 21.6325096,45.7063846 21.1715481,46.21725 C20.9252019,46.4904231 20.5859712,46.62975 20.2455865,46.62975 L20.2455865,46.62975 Z M44.2441442,44.1109038 C43.9868365,44.1109038 43.7269327,44.031 43.5039519,43.8662885 C42.9512596,43.4563846 42.8350096,42.6763846 43.244625,42.1231154 C43.6438558,41.5637885 44.4215481,41.4354231 44.9814519,41.8352308 C45.5410673,42.2350385 45.6697212,43.01475 45.269625,43.5746538 L45.2465481,43.6063846 C45.0025096,43.9363846 44.6254904,44.1109038 44.2441442,44.1109038 L44.2441442,44.1109038 Z M17.9751058,44.1100385 C17.587125,44.1100385 17.2049135,43.9294615 16.9620288,43.5902308 C16.5567404,43.0433077 16.6660673,42.2702308 17.2098173,41.8571538 C17.7581827,41.4411923 18.5393365,41.5482115 18.9552981,42.096 L18.9876058,42.1398462 C19.3874135,42.6994615 19.2578942,43.4780192 18.6979904,43.8778269 C18.4781827,44.0344615 18.2252019,44.1100385 17.9751058,44.1100385 L17.9751058,44.1100385 Z M17.8084111,43.0430913 L17.7867764,43.0589567 L18.0344928,42.882274 L17.8084111,43.0430913 Z M45.9472212,41.1691731 C45.779625,41.1691731 45.6097212,41.1348462 45.4464519,41.0630192 C44.8184712,40.7858077 44.5323173,40.0562885 44.8075096,39.4274423 L44.8204904,39.3977308 C45.1034712,38.7706154 45.8419327,38.49225 46.4684712,38.7752308 C47.095875,39.0585 47.3745288,39.7963846 47.0912596,40.4232115 L45.955875,39.9103269 L47.0892404,40.4281154 C46.882125,40.8919615 46.4252019,41.1691731 45.9472212,41.1691731 L45.9472212,41.1691731 Z M16.2627981,41.166 C15.7911635,41.166 15.3428942,40.8977308 15.1357788,40.4393654 C15.1334712,40.4341731 15.1239519,40.4128269 15.1219327,40.4079231 C14.8470288,39.7770577 15.1357788,39.0432115 15.7666442,38.7685962 C16.3972212,38.4934038 17.1313558,38.7821538 17.4059712,39.4130192 C17.6797212,40.041 17.3987596,40.7800385 16.7727981,41.05725 C16.6066442,41.1313846 16.4332788,41.166 16.2627981,41.166 L16.2627981,41.166 Z M15.2179904,37.9444615 C14.6422212,37.9444615 14.1250096,37.5426346 14.0006827,36.9570577 L15.2194327,36.6983077 L13.9989519,36.9495577 C13.8518365,36.2777308 14.2764519,35.6125385 14.9482788,35.4651346 C15.6201058,35.3162885 16.2841442,35.7411923 16.4324135,36.4127308 C16.4327019,36.4161923 16.4373173,36.4366731 16.4381827,36.4401346 C16.5806827,37.1131154 16.150875,37.7745577 15.4778942,37.9170577 C15.3907788,37.9355192 15.3036635,37.9444615 15.2179904,37.9444615 L15.2179904,37.9444615 Z M47.0018365,37.9438846 C46.9184712,37.9438846 46.8342404,37.9355192 46.7494327,37.9182115 C46.0752981,37.7794615 45.6414519,37.1206154 45.7802019,36.4467692 C45.7807788,36.4441731 45.7848173,36.4242692 45.7856827,36.42225 C45.9281827,35.7492692 46.5904904,35.3200385 47.2626058,35.4616731 C47.9355865,35.60475 48.3656827,36.2661923 48.2228942,36.9391731 L47.0041442,36.6804231 L48.2205865,36.9489808 C48.0997212,37.5383077 47.5807788,37.9438846 47.0018365,37.9438846 L47.0018365,37.9438846 Z M47.3554904,34.5674423 C46.6677981,34.5674423 46.1099135,34.0095577 46.1099135,33.3212885 L46.1099135,33.3057115 C46.109625,33.2985 46.109625,33.2918654 46.109625,33.2849423 C46.109625,32.5966731 46.6672212,32.0301346 47.3554904,32.0301346 C48.0434712,32.0301346 48.6010673,32.5793654 48.6010673,33.2670577 L48.6010673,33.2823462 C48.6016442,33.2895577 48.6016442,33.2964808 48.6016442,33.3036923 L48.6016442,33.3212885 C48.6016442,34.0095577 48.0437596,34.5674423 47.3554904,34.5674423 L47.3554904,34.5674423 Z M14.8640481,34.5587885 C14.1760673,34.5587885 13.6184712,34.0101346 13.6184712,33.3221538 L13.6184712,33.3042692 C13.6184712,32.616 14.1760673,32.0584038 14.8640481,32.0584038 C15.5523173,32.0584038 16.1102019,32.616 16.1102019,33.3042692 C16.1102019,33.99225 15.5523173,34.5587885 14.8640481,34.5587885 L14.8640481,34.5587885 Z M15.2130865,31.1907115 C15.127125,31.1907115 15.0405865,31.1817692 14.9531827,31.1635962 C14.2802019,31.0205192 13.8501058,30.3590769 13.9931827,29.6860962 L15.2119327,29.9448462 L13.9952019,29.6762885 C14.1339519,29.0024423 14.7930865,28.5688846 15.4669327,28.7070577 C16.1407788,28.8458077 16.5743365,29.5046538 16.4355865,30.1785 C16.4352981,30.1810962 16.4309712,30.2004231 16.4306827,30.2030192 C16.3063558,30.7891731 15.7891442,31.1907115 15.2130865,31.1907115 L15.2130865,31.1907115 Z M46.9989519,31.1543654 C46.4202981,31.1543654 45.9013558,30.7487885 45.7799135,30.1594615 C45.6414519,29.4873462 46.0715481,28.821 46.743375,28.6805192 C47.4163558,28.5406154 48.0728942,28.9611923 48.2153942,29.6327308 C48.2156827,29.6353269 48.2200096,29.6552308 48.2202981,29.6575385 C48.3590481,30.3313846 47.9252019,30.9899423 47.2513558,31.1286923 C47.1668365,31.1462885 47.0820288,31.1543654 46.9989519,31.1543654 L46.9989519,31.1543654 Z M16.255875,27.9596538 C16.0845288,27.9596538 15.9100096,27.9241731 15.7435673,27.8488846 C15.1170288,27.5656154 14.8380865,26.8277308 15.1210673,26.2009038 L16.2564519,26.7135 L15.123375,26.196 C15.4031827,25.5691731 16.1381827,25.2838846 16.7661635,25.5610962 C17.3935673,25.8383077 17.6802981,26.5678269 17.4053942,27.1966731 L17.392125,27.2263846 C17.1838558,27.6870577 16.7301058,27.9596538 16.255875,27.9596538 L16.255875,27.9596538 Z M45.9492404,27.9261923 C45.4747212,27.9261923 45.0212596,27.6535962 44.8132788,27.1929231 C44.5302981,26.5658077 44.8052019,25.8195577 45.4323173,25.5365769 C46.0588558,25.2527308 46.7938558,25.5241731 47.0768365,26.1512885 L47.0840481,26.1674423 C47.3670288,26.7945577 47.0886635,27.5321538 46.4615481,27.8154231 C46.2951058,27.8907115 46.120875,27.9261923 45.9492404,27.9261923 L45.9492404,27.9261923 Z M17.9523173,25.01475 C17.7013558,25.01475 17.4486635,24.9394615 17.2297212,24.7825385 C16.6703942,24.3827308 16.5397212,23.6067692 16.9395288,23.0474423 L16.9715481,23.0035962 C17.3877981,22.4558077 18.1692404,22.3485 18.7170288,22.76475 C19.2613558,23.1781154 19.3706827,23.9517692 18.9645288,24.4992692 C18.7207788,24.8356154 18.3388558,25.01475 17.9523173,25.01475 L17.9523173,25.01475 Z M44.2513558,24.9913846 C43.8682788,24.9913846 43.4898173,24.8157115 43.2449135,24.4848462 L43.2218365,24.4528269 C42.8217404,23.8932115 42.9515481,23.1146538 43.5117404,22.7151346 C44.0707788,22.3153269 44.8490481,22.4445577 45.2494327,23.00475 L44.2354904,23.7287885 L45.2514519,23.0076346 C45.6607788,23.5609038 45.5427981,24.3377308 44.9895288,24.7473462 C44.7677019,24.9120577 44.508375,24.9913846 44.2513558,24.9913846 L44.2513558,24.9913846 Z M41.9704904,22.4679231 C41.6860673,22.4679231 41.4007788,22.371 41.1662596,22.1728269 C41.1532788,22.1621538 41.1270288,22.1385 41.1143365,22.1269615 C40.608375,21.6613846 40.5754904,20.8730192 41.0413558,20.3664808 C41.5052019,19.8625385 42.2889519,19.8279231 42.7954904,20.2877308 C43.3026058,20.7345577 43.360875,21.5082115 42.922125,22.0265769 C42.6754904,22.3179231 42.3244327,22.4679231 41.9704904,22.4679231 L41.9704904,22.4679231 Z M42.0717043,21.162238 L41.9855264,21.2556274 L42.0717043,21.162238 Z M22.9764519,20.4821538 C22.5443365,20.4821538 22.1237596,20.2603269 21.8935673,19.8613846 C21.5502981,19.2651346 21.7473173,18.5079231 22.3435673,18.1646538 L22.3588558,18.1554231 C22.9545288,17.8121538 23.7163558,18.0166731 24.0602019,18.6129231 C24.4037596,19.2088846 24.1989519,19.9707115 23.6027019,20.3145577 C23.4056827,20.4276346 23.189625,20.4821538 22.9764519,20.4821538 L22.9764519,20.4821538 Z M39.2226058,20.4720577 C39.0085673,20.4720577 38.7916442,20.4169615 38.5937596,20.301 C37.9952019,19.9617692 37.7849135,19.2016731 38.1241442,18.6028269 C38.463375,18.0042692 39.2234712,17.7939808 39.8226058,18.1335 L39.8537596,18.1513846 C40.447125,18.4992692 40.6461635,19.2628269 40.2982788,19.8559038 C40.0666442,20.2516731 39.6501058,20.4720577 39.2226058,20.4720577 L39.2226058,20.4720577 Z M26.0681827,19.1015769 C25.5480865,19.1015769 25.0620288,18.7738846 24.8863558,18.2543654 C24.6665481,17.6027308 25.0138558,16.8971538 25.6652019,16.6767692 L25.7153942,16.6603269 C26.3727981,16.4584038 27.0702981,16.8273462 27.2722212,17.4850385 C27.4732788,18.1381154 27.1101058,18.8304231 26.4604904,19.0378269 C26.3303942,19.0808077 26.1985673,19.1015769 26.0681827,19.1015769 L26.0681827,19.1015769 Z M36.1225096,19.0920577 C35.9987596,19.0920577 35.8732788,19.0735962 35.7492404,19.0346538 L35.7100096,19.0219615 C35.0572212,18.8044615 34.7044327,18.0988846 34.9222212,17.4460962 C35.1394327,16.7938846 35.8452981,16.4405192 36.4980865,16.6583077 L36.1037596,17.8401346 L36.5012596,16.6591731 C37.1580865,16.8645577 37.5195288,17.5617692 37.3144327,18.2185962 C37.1477019,18.7510962 36.6535673,19.0920577 36.1225096,19.0920577 L36.1225096,19.0920577 Z M29.3877981,18.3939808 C28.7644327,18.3939808 28.2241442,17.9269615 28.1500096,17.2929231 C28.0703942,16.6098462 28.5570288,15.9913846 29.2395288,15.9111923 L29.2937596,15.9054231 C29.9785673,15.8465769 30.5834712,16.3516731 30.6437596,17.0370577 C30.7040481,17.7175385 30.2047212,18.3189808 29.5262596,18.3864808 C29.4801058,18.3913846 29.4336635,18.3939808 29.3877981,18.3939808 L29.3877981,18.3939808 Z M32.7994327,18.3905192 C32.755875,18.3905192 32.7111635,18.3882115 32.6661635,18.3835962 C31.9848173,18.3184038 31.480875,17.7149423 31.5420288,17.0324423 C31.6026058,16.3476346 32.2049135,15.8419615 32.8900096,15.9019615 L32.9436635,15.9071538 C33.6270288,15.9876346 34.1156827,16.6066731 34.0357788,17.2903269 C33.9607788,17.9240769 33.4225096,18.3902308 32.7994327,18.3905192 L32.7994327,18.3905192 Z"
             id="Fill-5"
             fill="#B32C50" />
          <path
             d="M31.9402788,54.4447212 C31.286625,54.4447212 30.7379712,53.9352981 30.697875,53.2744327 C30.6563365,52.5876058 31.1793173,51.9974135 31.8658558,51.9555865 C31.879125,51.9547212 31.9097019,51.9535673 31.9223942,51.9529904 C32.6158558,51.9377019 33.184125,52.4739519 33.2046058,53.1616442 C33.2242212,53.8481827 32.6856635,54.4210673 31.9997019,54.4435673 C31.9797981,54.4444327 31.9601827,54.4447212 31.9402788,54.4447212 L31.9402788,54.4447212 Z M32.0007837,53.444012 L32.0018654,53.4631226 L31.9946538,53.2089159 L32.0007837,53.444012 Z M28.597875,54.3053942 C28.5488365,54.3053942 28.4992212,54.3022212 28.4487404,54.2964519 C28.4377788,54.2952981 28.4092212,54.2915481 28.3979712,54.2898173 C27.7172019,54.1894327 27.2467212,53.5565481 27.3465288,52.8760673 C27.4460481,52.1993365 28.0734519,51.7317404 28.7484519,51.8228942 C29.4274904,51.9085673 29.9135481,52.5273173 29.8313365,53.2077981 C29.7551827,53.8403942 29.2192212,54.3053942 28.597875,54.3053942 L28.597875,54.3053942 Z M35.2783558,54.022125 C34.7025865,54.022125 34.185375,53.6205865 34.0610481,53.0347212 C33.9182596,52.3617404 34.3480673,51.7002981 35.0210481,51.5577981 C35.6931635,51.4138558 36.364125,51.8427981 36.506625,52.5157788 C36.6497019,53.1893365 36.2282596,53.8484712 35.5552788,53.9909712 L35.5379712,53.9947212 C35.4511442,54.0134712 35.3640288,54.022125 35.2783558,54.022125 L35.2783558,54.022125 Z M25.3045096,53.6015481 C25.1839327,53.6015481 25.061625,53.5836635 24.9401827,53.5461635 L24.9231635,53.5412596 C24.2654712,53.3387596 23.8965288,52.6418365 24.0984519,51.9841442 C24.3009519,51.3267404 24.997875,50.9575096 25.6555673,51.1600096 C26.3132596,51.3619327 26.6908558,52.0617404 26.4886442,52.7194327 C26.3236442,53.2553942 25.8352788,53.6015481 25.3045096,53.6015481 L25.3045096,53.6015481 Z M38.497875,53.039625 C37.9936442,53.039625 37.5188365,52.7315481 37.3313365,52.2310673 C37.0922019,51.5932788 37.4097981,50.8830865 38.0409519,50.6344327 C38.6735481,50.3768365 39.397875,50.6756827 39.6618173,51.3065481 C39.9274904,51.9411635 39.6300865,52.6698173 38.9957596,52.9360673 C38.9813365,52.942125 38.9504712,52.9545288 38.9354712,52.9600096 C38.7912404,53.0139519 38.6435481,53.039625 38.497875,53.039625 L38.497875,53.039625 Z M22.1798942,52.3481827 C21.9955673,52.3481827 21.8086442,52.3066442 21.6321058,52.2201058 C21.6197019,52.2143365 21.5920096,52.199625 21.5796058,52.1935673 C20.9726827,51.869625 20.7430673,51.1147212 21.0670096,50.5077981 C21.3880673,49.9054904 22.1331635,49.6747212 22.7377788,49.9868365 C23.3487404,50.2940481 23.6002788,51.0377019 23.2973942,51.6518365 C23.0804712,52.0923173 22.6394135,52.3481827 22.1798942,52.3481827 L22.1798942,52.3481827 Z M41.5022019,51.5243365 C41.0813365,51.5243365 40.6705673,51.3111635 40.4360481,50.9249135 C40.0789327,50.3370288 40.2667212,49.5705865 40.8546058,49.2134712 C41.4404712,48.8577981 42.2112404,49.0375096 42.570375,49.6222212 C42.9289327,50.2063558 42.7552788,50.9661635 42.172875,51.3276058 C42.1694135,51.3302019 42.1509519,51.3411635 42.1477788,51.3431827 C41.9455673,51.4660673 41.7225865,51.5243365 41.5022019,51.5243365 L41.5022019,51.5243365 Z M19.3148942,50.5827981 C19.0570096,50.5827981 18.7971058,50.5028942 18.5744135,50.3376058 L19.3157596,49.3366442 L18.5686442,50.3335673 C18.0139327,49.9279904 17.891625,49.1482788 18.2963365,48.5929904 C18.7013365,48.0377019 19.4784519,47.9142404 20.0346058,48.3186635 C20.0374904,48.3206827 20.0542212,48.3336635 20.0571058,48.3356827 C20.6100865,48.7450096 20.726625,49.5255865 20.3167212,50.0782788 C20.0723942,50.4082788 19.6962404,50.5827981 19.3148942,50.5827981 L19.3148942,50.5827981 Z M44.2068173,49.5235673 C43.8621058,49.5235673 43.519125,49.3813558 43.2730673,49.1029904 C42.8172981,48.5877981 42.8657596,47.8002981 43.3809519,47.3445288 C43.3818173,47.3436635 43.3956635,47.3312596 43.3965288,47.3303942 C43.912875,46.8760673 44.7000865,46.9265481 45.1544135,47.4428942 C45.6093173,47.9592404 45.5588365,48.7467404 45.0424904,49.2010673 L44.2195096,48.265875 L45.0318173,49.2105865 C44.7947019,49.4200096 44.5001827,49.5235673 44.2068173,49.5235673 L44.2068173,49.5235673 Z M16.7925865,48.3613558 C16.4674904,48.3613558 16.1426827,48.2355865 15.8980673,47.9857788 C15.8922981,47.9794327 15.874125,47.9609712 15.8683558,47.954625 C15.3970096,47.4532788 15.4215288,46.6649135 15.922875,46.1935673 C16.4242212,45.7222212 17.2122981,45.7470288 17.6836442,46.2480865 C18.1650865,46.739625 18.1544135,47.5253942 17.6625865,48.007125 C17.4211442,48.2439519 17.1067212,48.3613558 16.7925865,48.3613558 L16.7925865,48.3613558 Z M46.5358558,47.0952981 C46.2595096,47.0952981 45.9811442,47.0038558 45.7497981,46.8152019 C45.2164327,46.3807788 45.1362404,45.5961635 45.5709519,45.0627981 C46.0047981,44.5302981 46.7934519,44.4423173 47.3271058,44.8752981 C47.8610481,45.3082788 47.9490288,46.0839519 47.5172019,46.6187596 C47.5160481,46.6199135 47.5036442,46.6352019 47.5027788,46.6363558 C47.2564327,46.9389519 46.897875,47.0952981 46.5358558,47.0952981 L46.5358558,47.0952981 Z M14.6617212,45.7398173 C14.2668173,45.7398173 13.879125,45.5514519 13.6399904,45.1986635 L13.6301827,45.1839519 C13.2436442,44.6145288 13.3922019,43.8400096 13.9613365,43.4537596 C14.5307596,43.0669327 15.3052788,43.2157788 15.6915288,43.7849135 C16.0777788,44.3543365 15.9344135,45.1363558 15.3652788,45.5226058 C15.1492212,45.6691442 14.9037404,45.7398173 14.6617212,45.7398173 L14.6617212,45.7398173 Z M48.4244135,44.3064519 C48.2198942,44.3064519 48.0130673,44.2559712 47.8221058,44.1498173 C47.2221058,43.8160673 47.0037404,43.0628942 47.3354712,42.4617404 C47.3374904,42.4579904 47.3487404,42.4380865 47.3510481,42.4340481 C47.6899904,41.8357788 48.4500865,41.6252019 49.0486442,41.9647212 C49.6472019,42.303375 49.8574904,43.0640481 49.5185481,43.6626058 L48.4347981,43.0484712 L49.5159519,43.6675096 C49.286625,44.0753942 48.8620096,44.3064519 48.4244135,44.3064519 L48.4244135,44.3064519 Z M13.0255673,42.8110673 C12.5510481,42.8110673 12.097875,42.5384712 11.8896058,42.0775096 L13.0247019,41.5649135 L11.8875865,42.0728942 C11.6022981,41.4489519 11.8743173,40.7087596 12.4971058,40.4211635 C13.1201827,40.1335673 13.8563365,40.4001058 14.1465288,41.0223173 C14.1485481,41.0269327 14.1580673,41.0474135 14.1600865,41.0520288 C14.4436442,41.6791442 14.1647019,42.4170288 13.537875,42.7005865 C13.3714327,42.7752981 13.1972019,42.8110673 13.0255673,42.8110673 L13.0255673,42.8110673 Z M49.8162404,41.2441442 C49.6708558,41.2441442 49.5234519,41.2184712 49.3792212,41.1645288 C48.7388365,40.9245288 48.4125865,40.2137596 48.6459519,39.5725096 C48.8726827,38.9263558 49.579125,38.5819327 50.227875,38.8057788 C50.8777788,39.029625 51.2242212,39.7363558 51.0006635,40.3859712 C50.996625,40.3972212 50.9871058,40.424625 50.9830673,40.4352981 C50.7955673,40.9354904 50.3207596,41.2441442 49.8162404,41.2441442 L49.8162404,41.2441442 Z M11.8997019,39.6394327 C11.3449904,39.6394327 10.8390288,39.2661635 10.6942212,38.7042404 L11.9005673,38.3929904 L10.6922019,38.695875 C10.5165288,38.0312596 10.912875,37.3490481 11.5774904,37.1727981 C12.2423942,36.9962596 12.9234519,37.3920288 13.1002788,38.0563558 C13.1011442,38.0592404 13.1063365,38.0794327 13.1069135,38.0823173 C13.2788365,38.7489519 12.877875,39.4279904 12.2112404,39.5993365 C12.1071058,39.6267404 12.0026827,39.6394327 11.8997019,39.6394327 L11.8997019,39.6394327 Z M50.666625,37.9877019 C50.6063365,37.9877019 50.5451827,37.983375 50.4834519,37.9741442 C49.8026827,37.8743365 49.3322019,37.2411635 49.4320096,36.5603942 C49.4346058,36.5462596 49.4395096,36.5153942 49.4423942,36.5012596 C49.5649904,35.8245288 50.2134519,35.3756827 50.8907596,35.4985673 C51.5654712,35.6214519 52.0143173,36.2667404 51.8943173,36.9417404 C51.7956635,37.5512596 51.2680673,37.9877019 50.666625,37.9877019 L50.666625,37.9877019 Z M50.8669255,36.7899014 L50.8781034,36.7920649 L50.6844736,36.7570889 L50.8669255,36.7899014 Z M11.3285481,36.3137596 C10.6901827,36.3137596 10.1481635,35.8331827 10.0910481,35.1864519 C10.0907596,35.1812596 10.0887404,35.1581827 10.0881635,35.1532788 C10.0365288,34.4670288 10.5505673,33.8687596 11.2362404,33.8168365 C11.9230673,33.7701058 12.5207596,34.2792404 12.5729712,34.9652019 C12.6246058,35.6482788 12.1160481,36.2534712 11.4329712,36.3097212 C11.3977788,36.3126058 11.3631635,36.3137596 11.3285481,36.3137596 L11.3285481,36.3137596 Z M11.3297019,32.9575096 C11.2930673,32.9575096 11.2558558,32.9563558 11.2186442,32.9528942 C10.5332596,32.8923173 10.0267212,32.2877019 10.0870096,31.6023173 L11.3279712,31.7119327 L10.087875,31.597125 C10.1452788,30.9131827 10.7472981,30.4014519 11.4283558,30.4562596 C12.1122981,30.5107788 12.6237404,31.1044327 12.5721058,31.788375 C12.5715288,31.7935673 12.5695096,31.8163558 12.5692212,31.8212596 C12.5121058,32.4694327 11.9680673,32.9575096 11.3297019,32.9575096 L11.3297019,32.9575096 Z M50.6614327,31.2377019 C50.059125,31.2377019 49.5312404,30.8003942 49.4334519,30.1900096 C49.3169135,29.5164519 49.7646058,28.8723173 50.4384519,28.7500096 C51.1151827,28.6274135 51.7630673,29.0751058 51.8856635,29.7515481 C51.8885481,29.7651058 51.8934519,29.7965481 51.8954712,29.8101058 C51.9955673,30.4911635 51.5250865,31.1240481 50.8446058,31.2244327 C50.7831635,31.2330865 50.7220096,31.2377019 50.6614327,31.2377019 L50.6614327,31.2377019 Z M49.8139327,27.982125 C49.3094135,27.982125 48.8346058,27.6734712 48.6468173,27.1732788 C48.6430673,27.1623173 48.6329712,27.1352019 48.6292212,27.1239519 C48.4059519,26.4731827 48.7521058,25.7647212 49.402875,25.540875 C50.0522019,25.3178942 50.760375,25.6626058 50.9845096,26.3113558 C51.2172981,26.9520288 50.8907596,27.6622212 50.2509519,27.9022212 C50.1067212,27.9564519 49.9587404,27.982125 49.8139327,27.982125 L49.8139327,27.982125 Z M50.1230553,26.6595649 L49.8125986,26.7659351 L50.1230553,26.6595649 Z M13.0042212,26.4547212 C12.8343173,26.4547212 12.6615288,26.4201058 12.4976827,26.3456827 C11.8705673,26.062125 11.587875,25.3326058 11.8714327,24.7054904 L11.8783558,24.6893365 C12.161625,24.0622212 12.8995096,23.7838558 13.5269135,24.0668365 C14.1534519,24.3501058 14.4323942,25.0877019 14.1494135,25.7148173 C13.9402788,26.1775096 13.481625,26.4547212 13.0042212,26.4547212 L13.0042212,26.4547212 Z M48.424125,24.918953 C47.9856635,24.9195288 47.5613365,24.6873173 47.3340288,24.2791442 C46.9959519,23.6866442 47.1958558,22.9294327 47.7857596,22.5841442 C48.3794135,22.237125 49.1415288,22.4350096 49.489125,23.0277981 C49.4974904,23.0422212 49.5142212,23.0722212 49.5220096,23.0872212 C49.8459519,23.6941442 49.6163365,24.4490481 49.0094135,24.7724135 C48.8227788,24.8719327 48.6220096,24.918953 48.424125,24.918953 L48.424125,24.918953 Z M14.6455673,23.5152981 C14.4058558,23.5152981 14.1647019,23.4463558 13.9523942,23.3024135 C13.3829712,22.9161635 13.2297981,22.1485673 13.6160481,21.5791442 L13.6258558,21.5647212 C14.0121058,20.9955865 14.7869135,20.8467404 15.3560481,21.2335673 C15.9254712,21.6198173 16.0737404,22.3943365 15.6874904,22.9637596 C15.4454712,23.3205865 15.0482596,23.5152981 14.6455673,23.5152981 L14.6455673,23.5152981 Z M46.5344135,22.1350096 C46.1729712,22.1350096 45.814125,21.978375 45.5680673,21.6760673 C45.566625,21.674625 45.5545096,21.6593365 45.5536442,21.6581827 C45.1209519,21.1227981 45.2043173,20.3387596 45.7399904,19.9063558 C46.2747981,19.4742404 47.0594135,19.5573173 47.4915288,20.0927019 L46.522875,20.8752981 L47.4993173,20.1022212 C47.9340288,20.6355865 47.8538365,21.4202019 47.3204712,21.8549135 C47.0897019,22.0432788 46.8110481,22.1350096 46.5344135,22.1350096 L46.5344135,22.1350096 Z M16.759125,20.9047212 C16.4447019,20.9047212 16.1302788,20.7861635 15.8879712,20.5490481 C15.3975865,20.0684712 15.3880673,19.282125 15.8660481,18.7902981 C16.3330673,18.2955865 17.1127788,18.2670288 17.6152788,18.7291442 C18.1212404,19.1950096 18.1544135,19.983375 17.6882596,20.4893365 C17.6796058,20.4988558 17.6585481,20.5213558 17.6496058,20.5302981 C17.4052788,20.7795288 17.0827788,20.9047212 16.759125,20.9047212 L16.759125,20.9047212 Z M16.6393413,19.5417764 L16.8131394,19.7116082 L16.6393413,19.5417764 Z M44.2022019,19.7073173 C43.9085481,19.7073173 43.6137404,19.604625 43.3772019,19.3949135 C42.8622981,18.9394327 42.8069135,18.1473173 43.2618173,17.6318365 C43.7164327,17.1160673 44.4964327,17.0603942 45.0122019,17.5147212 C45.0130673,17.5155865 45.0272019,17.5279904 45.0272019,17.5279904 C45.5432596,17.984625 45.5914327,18.7715481 45.1359519,19.2873173 C44.8896058,19.5656827 44.546625,19.7073173 44.2022019,19.7073173 L44.2022019,19.7073173 Z M19.2895096,18.6682788 C18.9058558,18.6682788 18.5273942,18.4940481 18.2845096,18.1631827 C17.8786442,17.6102019 17.989125,16.8379904 18.5400865,16.4298173 C18.5429712,16.4277981 18.5605673,16.4151058 18.5634519,16.4130865 C19.1193173,16.0086635 19.8984519,16.1315481 20.3034519,16.6882788 C20.707875,17.2447212 20.5847019,18.0232788 20.0288365,18.4282788 C19.8061442,18.5901058 19.5465288,18.6682788 19.2895096,18.6682788 L19.2895096,18.6682788 Z M41.5007596,17.7077019 C41.284125,17.7077019 41.0651827,17.6520288 40.8661442,17.5354904 C40.8569135,17.5300096 40.8329712,17.5152981 40.8240288,17.5098173 C40.2393173,17.1472212 40.0596058,16.3790481 40.4227788,15.794625 C40.7856635,15.2099135 41.5535481,15.0299135 42.1382596,15.3930865 L41.4811442,16.4514519 L42.1402788,15.3945288 C42.7339327,15.7424135 42.9260481,16.5013558 42.5781635,17.0947212 C42.3468173,17.4893365 41.929125,17.7077019 41.5007596,17.7077019 L41.5007596,17.7077019 Z M22.1435481,16.9066442 C21.686625,16.9066442 21.2467212,16.6542404 21.0286442,16.2175096 C20.7208558,15.6025096 20.9697981,14.8539519 21.585375,14.5464519 L22.1423942,15.6607788 L21.5873942,14.5452981 C22.1951827,14.2213558 22.9414327,14.4555865 23.2650865,15.0625096 C23.5890288,15.6694327 23.351625,16.4277981 22.744125,16.7517404 C22.7348942,16.7566442 22.7095096,16.7699135 22.6997019,16.7745288 C22.5208558,16.8642404 22.3307596,16.9066442 22.1435481,16.9066442 L22.1435481,16.9066442 Z M38.4880673,16.1915481 C38.3389327,16.1915481 38.1877788,16.1647212 38.040375,16.1076058 C38.0340288,16.1052981 38.0109519,16.0960673 38.0046058,16.0931827 C37.3671058,15.8347212 37.0601827,15.1077981 37.3192212,14.4702981 C37.5782596,13.8330865 38.3054712,13.5264519 38.9423942,13.7849135 L38.4736442,14.9393365 L38.9461442,13.7866442 C39.5813365,14.0425096 39.8957596,14.7645288 39.6439327,15.4017404 C39.4506635,15.8915481 38.9839327,16.1915481 38.4880673,16.1915481 L38.4880673,16.1915481 Z M25.2623942,15.6463558 C24.7298942,15.6463558 24.236625,15.3019327 24.071625,14.7662596 C23.8697019,14.1085673 24.2386442,13.4116442 24.8963365,13.2091442 L25.2626827,14.3999135 L24.907875,13.2053942 C25.5647019,13.0005865 26.2633558,13.3666442 26.4681635,14.0228942 C26.6735481,14.6800096 26.3074904,15.378375 25.6512404,15.5837596 C25.6495096,15.5843365 25.6307596,15.5901058 25.6287404,15.5903942 C25.5070096,15.6281827 25.3832596,15.6463558 25.2623942,15.6463558 L25.2623942,15.6463558 Z M35.2705673,15.209625 C35.1846058,15.209625 35.0977788,15.2009712 35.0106635,15.1822212 C34.3376827,15.0397212 33.8995096,14.3765481 34.0420096,13.7032788 C34.1847981,13.0302981 34.8375865,12.5990481 35.5105673,12.7415481 L35.5275865,12.7452981 C36.2008558,12.8877981 36.6306635,13.5492404 36.4881635,14.2222212 C36.3638365,14.8080865 35.8460481,15.209625 35.2705673,15.209625 L35.2705673,15.209625 Z M28.5499904,14.9347212 C27.9277788,14.9347212 27.3900865,14.4697212 27.3145096,13.8365481 C27.232875,13.1540481 27.7192212,12.5352981 28.4005673,12.4522212 C29.0747019,12.3604904 29.700375,12.8275096 29.8010481,13.5025096 C29.9025865,14.1829904 29.4332596,14.8170288 28.7530673,14.9185673 C28.7409519,14.9202981 28.7112404,14.9243365 28.699125,14.9257788 C28.6492212,14.9318365 28.5993173,14.9347212 28.5499904,14.9347212 L28.5499904,14.9347212 Z M28.5573101,13.4704904 L28.5908437,13.7531827 L28.5573101,13.4704904 Z M31.9319135,14.7884712 C31.9117212,14.7884712 31.8915288,14.7881827 31.8713365,14.7873173 C31.1876827,14.7622212 30.649125,14.189625 30.6698942,13.5045288 C30.6909519,12.817125 31.2652788,12.273375 31.9497981,12.2970288 C31.9624904,12.2973173 31.9930673,12.2984712 32.0060481,12.2993365 C32.692875,12.3411635 33.2155673,12.9313558 33.1743173,13.6184712 C33.1342212,14.2790481 32.5855673,14.7884712 31.9319135,14.7884712 L31.9319135,14.7884712 Z"
             id="Fill-7"
             fill="#B32C50" />
          <path
             d="M31.0654615,58.309125 L31.0527692,58.309125 C30.3645,58.309125 29.8045962,57.7515288 29.8045962,57.0629712 C29.8045962,56.3752788 30.3598846,55.8173942 31.0481538,55.8173942 C31.7358462,55.8173942 32.3023846,56.3752788 32.3023846,57.0629712 C32.3023846,57.7515288 31.7534423,58.309125 31.0654615,58.309125 L31.0654615,58.309125 Z M27.7178654,58.0746058 C27.6578654,58.0746058 27.5972885,58.0702788 27.5361346,58.061625 C26.8608462,57.9727788 26.3808462,57.3569135 26.4619038,56.6784519 C26.54325,55.9956635 27.162,55.5072981 27.8468077,55.5895096 C27.8586346,55.5906635 27.8880577,55.5947019 27.8998846,55.5964327 C28.5809423,55.6979712 29.0502692,56.3322981 28.9484423,57.0127788 C28.8561346,57.6306635 28.3247885,58.0746058 27.7178654,58.0746058 L27.7178654,58.0746058 Z M27.7171082,57.096649 L27.7142236,57.1211683 L27.7564111,56.8363125 L27.7171082,57.096649 Z M34.39575,58.0737404 C33.7726731,58.0737404 33.2344038,57.6067212 33.1599808,56.9729712 C33.0803654,56.295375 33.5603654,55.6806635 34.2350769,55.5923942 C34.9120962,55.4957596 35.5426731,55.9624904 35.6447885,56.6395096 C35.7474808,57.3197019 35.2810385,57.9537404 34.6014231,58.0567212 C34.5875769,58.0587404 34.5564231,58.0633558 34.5428654,58.0645096 C34.49325,58.0702788 34.4445,58.0737404 34.39575,58.0737404 L34.39575,58.0737404 Z M24.4345962,57.3664327 C24.3246923,57.3664327 24.2130577,57.3514327 24.102,57.3208558 C24.0887308,57.3171058 24.0590192,57.3084519 24.04575,57.3044135 C23.3895,57.0993173 23.0234423,56.400375 23.2285385,55.7438365 C23.4319038,55.0924904 24.1210385,54.7272981 24.7729615,54.9214327 C25.4306538,55.1089327 25.8160385,55.7931635 25.6325769,56.4534519 C25.4799808,57.0044135 24.9800769,57.3664327 24.4345962,57.3664327 L24.4345962,57.3664327 Z M37.6842115,57.3618173 C37.1473846,57.3618173 36.6503654,57.0130673 36.4888269,56.4730673 C36.2923846,55.8159519 36.6610385,55.1247981 37.3175769,54.9254712 C37.3204615,54.9246058 37.3328654,54.9208558 37.33575,54.9202788 C37.9914231,54.7160481 38.6854615,55.0829712 38.8905577,55.7395096 C39.0956538,56.3963365 38.7241154,57.0964327 38.0672885,57.3018173 C38.0606538,57.3038365 38.0442115,57.3090288 38.0375769,57.3110481 C37.9198846,57.345375 37.8013269,57.3618173 37.6842115,57.3618173 L37.6842115,57.3618173 Z M21.2808462,56.1935481 C21.1109423,56.1935481 20.9381538,56.1577788 20.7728654,56.0830673 C20.7705577,56.0822019 20.7523846,56.074125 20.7497885,56.0726827 C20.1244038,55.7856635 19.8503654,55.0460481 20.1370962,54.4209519 C20.4244038,53.7955673 21.1637308,53.5218173 21.7894038,53.8085481 C22.4130577,54.0947019 22.69575,54.8354712 22.4116154,55.4605673 C22.2019038,55.9200865 21.7530577,56.1935481 21.2808462,56.1935481 L21.2808462,56.1935481 Z M40.83075,56.1880673 C40.3594038,56.1880673 39.9073846,55.9206635 39.6976731,55.4654712 C39.4100769,54.8423942 39.6769038,54.1062404 40.2985385,53.8163365 C40.3031538,53.8143173 40.3239231,53.8047981 40.3285385,53.8022019 C40.9556538,53.5192212 41.6935385,53.7975865 41.9768077,54.4252788 C42.2597885,55.0518173 41.9808462,55.7897019 41.3537308,56.0732596 L40.8411346,54.937875 L41.3491154,56.0752788 C41.1812308,56.1520096 41.0046923,56.1880673 40.83075,56.1880673 L40.83075,56.1880673 Z M43.7719038,54.5801827 C43.3654615,54.5801827 42.9668077,54.3817212 42.7279615,54.0162404 C42.3518077,53.4407596 42.5119038,52.6705673 43.0868077,52.2935481 C43.0896923,52.2918173 43.1075769,52.2802788 43.11075,52.2782596 C43.6896923,51.9064327 44.4604615,52.0740288 44.8322885,52.6523942 C45.2041154,53.2313365 45.0368077,54.0021058 44.4581538,54.3739327 L43.7843077,53.3262404 L44.4523846,54.3776827 C44.2420962,54.5149904 44.0058462,54.5801827 43.7719038,54.5801827 L43.7719038,54.5801827 Z M46.4577692,52.5690288 C46.1041154,52.5690288 45.7524808,52.4193173 45.5061346,52.1282596 C45.0616154,51.6026827 45.1270962,50.8169135 45.6523846,50.3723942 C46.1690192,49.9177788 46.9533462,49.9702788 47.4079615,50.4869135 C47.8622885,51.0032596 47.8097885,51.7927788 47.2931538,52.2471058 C47.2873846,52.2525865 47.2683462,52.2690288 47.2617115,52.2745096 C47.0277692,52.4723942 46.7419038,52.5690288 46.4577692,52.5690288 L46.4577692,52.5690288 Z M15.6402692,52.567875 C15.3555577,52.567875 15.0691154,52.4695096 14.8354615,52.2672981 L14.8221923,52.2563365 C14.3012308,51.806625 14.24325,51.0202788 14.6929615,50.4993173 C15.1423846,49.9783558 15.9290192,49.920375 16.4499808,50.3697981 C16.9709423,50.8189327 17.0352692,51.6113365 16.5858462,52.1322981 C16.3383462,52.4193173 15.9901731,52.567875 15.6402692,52.567875 L15.6402692,52.567875 Z M48.8323846,50.1964327 C48.5398846,50.1964327 48.2465192,50.0940288 48.0099808,49.8857596 C47.4933462,49.4311442 47.4431538,48.6442212 47.8974808,48.1272981 C48.3417115,47.6025865 49.12575,47.539125 49.6513269,47.9836442 C50.1763269,48.4281635 50.2395,49.2165288 49.7955577,49.7418173 C49.7900769,49.7481635 49.7730577,49.7674904 49.7681538,49.7732596 C49.5215192,50.0530673 49.1776731,50.1964327 48.8323846,50.1964327 L48.8323846,50.1964327 Z M13.2639231,50.1938365 C12.9220962,50.1938365 12.5825769,50.0524904 12.3379615,49.7744135 C12.3359423,49.7721058 12.3218077,49.7562404 12.3197885,49.7539327 C11.8695,49.2332596 11.9260385,48.446625 12.4467115,47.9963365 C12.9668077,47.546625 13.7534423,47.6031635 14.2037308,48.1232596 C14.6522885,48.6422019 14.6035385,49.4325865 14.0869038,49.8837404 C13.8489231,50.0914327 13.5555577,50.1938365 13.2639231,50.1938365 L13.2639231,50.1938365 Z M11.2599808,47.5137404 C10.8552692,47.5137404 10.4577692,47.3167212 10.2180577,46.954125 C10.2143077,46.9483558 10.2013269,46.9281635 10.1975769,46.9221058 C9.82776923,46.3425865 9.99796154,45.5721058 10.5780577,45.2022981 C11.1581538,44.8322019 11.9280577,45.0023942 12.2984423,45.5824904 C12.6774808,46.1568173 12.5188269,46.9284519 11.9450769,47.3077788 C11.7339231,47.4468173 11.4956538,47.5137404 11.2599808,47.5137404 L11.2599808,47.5137404 Z M50.8475769,47.5105673 C50.6139231,47.5105673 50.3768077,47.4445096 50.1665192,47.3069135 C49.5910385,46.9296058 49.4300769,46.1573942 49.8070962,45.5819135 C50.1829615,45.0081635 50.9566154,44.8388365 51.5323846,45.2123942 C52.1072885,45.5856635 52.2774808,46.3463365 51.9065192,46.9235481 C51.9045,46.9267212 51.8929615,46.9440288 51.8912308,46.9474904 C51.6520962,47.3121058 51.2537308,47.5105673 50.8475769,47.5105673 L50.8475769,47.5105673 Z M52.4626731,44.5647981 C52.2861346,44.5647981 52.107,44.5272981 51.9368077,44.4476827 C51.3128654,44.156625 51.0434423,43.4155673 51.3345,42.7922019 C51.6244038,42.1708558 52.3645962,41.8930673 52.9868077,42.1786442 C53.6095962,42.4645096 53.8879615,43.1911442 53.6061346,43.815375 C53.6038269,43.8199904 53.5943077,43.8407596 53.5922885,43.8456635 C53.3811346,44.2988365 52.9314231,44.5647981 52.4626731,44.5647981 L52.4626731,44.5647981 Z M53.6424808,41.4257596 C53.5325769,41.4257596 53.4212308,41.4113365 53.3098846,41.3813365 C52.6464231,41.1998942 52.257,40.5075865 52.4381538,39.8438365 C52.4404615,39.8357596 52.4453654,39.817875 52.4476731,39.8097981 C52.6412308,39.1526827 53.3289231,38.7710481 53.9886346,38.9611442 C54.6469038,39.1506635 55.0294038,39.832875 54.8439231,40.4922981 C54.8427692,40.4972019 54.8390192,40.5096058 54.8378654,40.5145096 C54.687,41.0672019 54.18825,41.4257596 53.6424808,41.4257596 L53.6424808,41.4257596 Z M8.45988462,41.4179712 C7.92478846,41.4179712 7.43325,41.0738365 7.27344231,40.5344135 C7.272,40.5309519 7.26623077,40.5107596 7.26536538,40.5075865 C7.07498077,39.8464327 7.45661538,39.1561442 8.11776923,38.9657596 C8.77834615,38.7747981 9.46921154,39.1570096 9.65959615,39.8184519 C9.84911538,40.4775865 9.47296154,41.1747981 8.81469231,41.3672019 C8.69613462,41.4015288 8.57728846,41.4179712 8.45988462,41.4179712 L8.45988462,41.4179712 Z M7.75286538,38.1476827 C7.14680769,38.1476827 6.61517308,37.7031635 6.52171154,37.0858558 C6.52055769,37.0780673 6.51680769,37.0526827 6.51594231,37.0448942 C6.42565385,36.3629712 6.90507692,35.7370096 7.58728846,35.6464327 C8.26892308,35.5567212 8.89575,36.0361442 8.98575,36.7180673 C9.08901923,37.3985481 8.62055769,38.0308558 7.94065385,38.1335481 C7.87719231,38.1430673 7.81488462,38.1476827 7.75286538,38.1476827 L7.75286538,38.1476827 Z M54.3544038,38.1364327 C54.3056538,38.1364327 54.2569038,38.1335481 54.2072885,38.1277788 C53.5239231,38.0472981 53.0352692,37.4282596 53.1154615,36.7448942 C53.1169038,36.7313365 53.1215192,36.7004712 53.1235385,36.6863365 C53.2268077,36.0064327 53.862,35.5399904 54.5419038,35.6415288 C55.2203654,35.7439327 55.6876731,36.3762404 55.5881538,37.0544135 C55.5050769,37.6786442 54.9717115,38.1364327 54.3544038,38.1364327 L54.3544038,38.1364327 Z M54.5591394,36.9351707 L54.5717596,36.936613 L54.3712788,36.9059639 L54.5591394,36.9351707 Z M54.5915192,34.7876827 C53.9035385,34.7876827 53.3459423,34.2297981 53.3459423,33.5415288 L53.3459423,33.5196058 L53.3459423,33.4890288 C53.3459423,32.8013365 53.9035385,32.2347981 54.5915192,32.2347981 C55.2795,32.2347981 55.8370962,32.7837404 55.8370962,33.4717212 L55.8370962,33.4890288 L55.8370962,33.5002788 C55.8376731,33.5080673 55.8376731,33.5164327 55.8376731,33.5242212 L55.8376731,33.5415288 C55.8376731,34.2297981 55.2797885,34.7876827 54.5915192,34.7876827 L54.5915192,34.7876827 Z M7.51344231,34.7871058 C6.82517308,34.7871058 6.26728846,34.2381635 6.26728846,33.5501827 L6.26728846,33.5325865 C6.26728846,32.8446058 6.82517308,32.2870096 7.51344231,32.2870096 C8.20113462,32.2870096 8.75901923,32.8446058 8.75901923,33.5325865 C8.75901923,34.2208558 8.20113462,34.7871058 7.51344231,34.7871058 L7.51344231,34.7871058 Z M7.74623077,31.4377788 C7.68882692,31.4377788 7.63055769,31.4337404 7.57257692,31.425375 C6.89353846,31.3293173 6.41901923,30.7117212 6.51161538,30.0323942 C6.51219231,30.0283558 6.51536538,30.0064327 6.51594231,30.0021058 C6.61603846,29.3213365 7.24892308,28.8508558 7.92969231,28.9506635 C8.61017308,29.0507596 9.08123077,29.6836442 8.98084615,30.3644135 C8.88998077,30.9843173 8.35575,31.4377788 7.74623077,31.4377788 L7.74623077,31.4377788 Z M8.45325,28.1646058 C8.33584615,28.1646058 8.21642308,28.1475865 8.09844231,28.1126827 C7.43844231,27.9168173 7.06257692,27.2233558 7.25844231,26.5636442 L8.45296154,26.9184519 L7.26046154,26.5567212 C7.45228846,25.8964327 8.14286538,25.5150865 8.80315385,25.7054712 C9.46373077,25.8964327 9.84507692,26.5855673 9.65498077,27.2461442 C9.65382692,27.2496058 9.64805769,27.2697981 9.64719231,27.2729712 C9.48651923,27.814125 8.99036538,28.1646058 8.45325,28.1646058 L8.45325,28.1646058 Z M52.4540192,24.9589327 C51.9864231,24.9589327 51.5393077,24.6947019 51.3281538,24.2423942 C51.3261346,24.2377788 51.3166154,24.2170096 51.3145962,24.2123942 C51.0310385,23.5852788 51.3099808,22.8473942 51.9370962,22.564125 C52.5639231,22.2811442 53.3018077,22.5595096 53.5850769,23.1872019 L52.4496923,23.6997981 L53.5870962,23.1915288 C53.8723846,23.8154712 53.6003654,24.5559519 52.9772885,24.8432596 C52.8076731,24.9220096 52.6294038,24.9589327 52.4540192,24.9589327 L52.4540192,24.9589327 Z M11.2311346,22.0662404 C10.9951731,22.0662404 10.7569038,21.9993173 10.5454615,21.8597019 C9.97228846,21.4812404 9.81421154,20.7098942 10.1909423,20.1361442 C10.557,19.5615288 11.31825,19.3867212 11.8989231,19.7472981 C12.4833462,20.1096058 12.6630577,20.8780673 12.3004615,21.4627788 C12.2941154,21.4725865 12.2779615,21.4973942 12.2713269,21.5069135 C12.0321923,21.8695096 11.6352692,22.0662404 11.2311346,22.0662404 L11.2311346,22.0662404 Z M11.0418317,20.7065048 L11.2935144,20.8730913 L11.0418317,20.7065048 Z M50.8423846,22.0186442 C50.4370962,22.0186442 50.0395962,21.8213365 49.80075,21.4564327 C49.7987308,21.4535481 49.7874808,21.4359519 49.7851731,21.4324904 C49.4133462,20.8538365 49.5809423,20.0833558 50.1598846,19.7109519 C50.7385385,19.3388365 51.5090192,19.5064327 51.8814231,20.085375 L50.8331538,20.7592212 L51.8851731,20.0914327 C52.2601731,20.6674904 52.0992115,21.4397019 51.5234423,21.8155673 C51.3128654,21.9531635 51.0760385,22.0186442 50.8423846,22.0186442 L50.8423846,22.0186442 Z M13.2434423,19.3743173 C12.9590192,19.3743173 12.6734423,19.2776827 12.4395,19.0792212 C11.9147885,18.6347019 11.8484423,17.8509519 12.2923846,17.3259519 C12.30075,17.3161442 12.3206538,17.2933558 12.3293077,17.2838365 C12.7894038,16.7723942 13.5774808,16.7311442 14.0883462,17.1912404 C14.5966154,17.6481635 14.64075,18.4281635 14.19075,18.9401827 C13.9441154,19.2263365 13.5950769,19.3743173 13.2434423,19.3743173 L13.2434423,19.3743173 Z M48.8266154,19.335375 C48.4729615,19.335375 48.1213269,19.1859519 47.8752692,18.8946058 C47.4206538,18.3776827 47.4728654,17.5936442 47.9895,17.1387404 C48.5061346,16.6844135 49.2956538,16.7372019 49.7499808,17.2535481 C49.7554615,17.2593173 49.7719038,17.2792212 49.7773846,17.2849904 C50.2213269,17.8105673 50.1561346,18.5963365 49.6311346,19.0408558 C49.3966154,19.2387404 49.11075,19.335375 48.8266154,19.335375 L48.8266154,19.335375 Z M15.6203654,16.9901827 C15.27075,16.9901827 14.9234423,16.845375 14.67825,16.5612404 C14.2288269,16.0402788 14.2801731,15.2594135 14.8011346,14.8099904 L14.8144038,14.7987404 C15.3356538,14.3493173 16.122,14.4070096 16.5717115,14.9279712 C17.0208462,15.4492212 16.9631538,16.2355673 16.4421923,16.6852788 C16.2053654,16.8892212 15.912,16.9901827 15.6203654,16.9901827 L15.6203654,16.9901827 Z M46.4485385,16.9636442 C46.1566154,16.9636442 45.8626731,16.8615288 45.6264231,16.6532596 C45.1008462,16.2087404 45.03825,15.4249904 45.4821923,14.8997019 C45.9267115,14.3744135 46.7147885,14.3109519 47.2406538,14.7554712 C47.2467115,14.7606635 47.2663269,14.7773942 47.2720962,14.7825865 C47.7887308,15.2372019 47.8389231,16.0247019 47.3843077,16.5410481 C47.13825,16.8205673 46.7944038,16.9636442 46.4485385,16.9636442 L46.4485385,16.9636442 Z M18.2995962,14.9822019 C17.8865192,14.9822019 17.4818077,14.7768173 17.2452692,14.4012404 C16.8786346,13.8214327 17.0505577,13.054125 17.6289231,12.6854712 C18.1971923,12.3122019 18.9610385,12.4627788 19.3438269,13.0272981 C19.7303654,13.5964327 19.5818077,14.3712404 19.0126731,14.7574904 C19.0014231,14.7649904 18.9748846,14.7822981 18.9633462,14.7892212 C18.7573846,14.9198942 18.5271923,14.9822019 18.2995962,14.9822019 L18.2995962,14.9822019 Z M18.2306899,13.6081875 L18.3457139,13.7906394 L18.2306899,13.6081875 Z M43.7586346,14.9522019 C43.5249808,14.9522019 43.2875769,14.8864327 43.0772885,14.7482596 C42.5035385,14.3723942 42.3342115,13.5987404 42.7077692,13.0232596 C43.08075,12.4480673 43.8417115,12.277875 44.4189231,12.6488365 C44.4220962,12.6508558 44.4399808,12.6623942 44.4428654,12.664125 C45.0183462,13.0414327 45.1790192,13.8133558 44.8022885,14.3888365 C44.5631538,14.7537404 44.1647885,14.9522019 43.7586346,14.9522019 L43.7586346,14.9522019 Z M21.2525769,13.3607596 C20.7795,13.3607596 20.3251731,13.0933558 20.1160385,12.6372981 C19.8290192,12.0119135 20.0949808,11.2760481 20.7206538,10.9887404 L20.7362308,10.9818173 C21.3616154,10.6942212 22.1012308,10.969125 22.38825,11.5945096 C22.6755577,12.2196058 22.4012308,12.9592212 21.7755577,13.2462404 C21.6068077,13.3238365 21.42825,13.3607596 21.2525769,13.3607596 L21.2525769,13.3607596 Z M40.8105577,13.342875 C40.6340192,13.342875 40.4548846,13.305375 40.2846923,13.2254712 C39.6636346,12.9358558 39.3852692,12.1959519 39.6711346,11.5734519 C39.957,10.9509519 40.6842115,10.6722981 41.3078654,10.954125 C41.3127692,10.9561442 41.3335385,10.9656635 41.3381538,10.9676827 C41.9615192,11.2590288 42.2312308,12.0000865 41.9404615,12.6237404 C41.7290192,13.0769135 41.2793077,13.342875 40.8105577,13.342875 L40.8105577,13.342875 Z M24.3731538,12.1919135 C23.8418077,12.1919135 23.3522885,11.846625 23.1872885,11.3106635 C22.9847885,10.6529712 23.3600769,9.95431731 24.0177692,9.75181731 C24.0272885,9.74893269 24.0541154,9.74114423 24.0636346,9.73825962 C24.7259423,9.55191346 25.4142115,9.93816346 25.6005577,10.6001827 C25.7863269,11.2627788 25.4006538,11.9507596 24.7383462,12.1368173 C24.6169038,12.1740288 24.4937308,12.1919135 24.3731538,12.1919135 L24.3731538,12.1919135 Z M37.6628654,12.1717212 C37.5431538,12.1717212 37.4217115,12.1544135 37.3008462,12.1174904 C36.6385385,11.9311442 36.2560385,11.2446058 36.4423846,10.5822981 C36.6287308,9.91970192 37.32075,9.53489423 37.9824808,9.72124038 C37.9908462,9.72354808 38.0156538,9.73075962 38.0234423,9.73335577 C38.682,9.93297115 39.0538269,10.6281635 38.8547885,11.2867212 C38.6915192,11.8247019 38.1970962,12.1717212 37.6628654,12.1717212 L37.6628654,12.1717212 Z M34.3816154,11.4638365 C34.3328654,11.4638365 34.2841154,11.4609519 34.2345,11.4551827 C34.2209423,11.4540288 34.1900769,11.4494135 34.1765192,11.4473942 C33.4960385,11.3447019 33.0281538,10.7095096 33.1311346,10.0290288 C33.2341154,9.35085577 33.8652692,8.88470192 34.5440192,8.98306731 C35.2178654,9.07220192 35.697,9.686625 35.6173846,10.3636442 C35.5429615,10.9973942 35.0046923,11.4638365 34.3816154,11.4638365 L34.3816154,11.4638365 Z M34.4262188,10.0715769 L34.3955697,10.2720577 L34.4262188,10.0715769 Z M31.0308462,11.2304712 C30.3428654,11.2304712 29.7766154,10.672875 29.7766154,9.98489423 C29.7766154,9.296625 30.3249808,8.73902885 31.0135385,8.73902885 L31.0308462,8.73902885 C31.7191154,8.73902885 32.2767115,9.296625 32.2767115,9.98489423 C32.2767115,10.672875 31.7191154,11.2304712 31.0308462,11.2304712 L31.0308462,11.2304712 Z"
             id="Fill-9"
             fill="#B32C4A" />
          <path
             d="M26.4834808,2.78169231 C25.8756923,2.78169231 25.3423269,2.33746154 25.2505962,1.71871154 C25.1499231,1.03880769 25.6166538,0.405634615 26.2968462,0.304673077 C26.3078077,0.302365385 26.3369423,0.298615385 26.3479038,0.297173077 C27.0304038,0.216403846 27.65175,0.701019231 27.7348269,1.38409615 C27.8170385,2.06284615 27.3370385,2.68015385 26.6605962,2.769 C26.6011731,2.77765385 26.54175,2.78169231 26.4834808,2.78169231"
             id="Fill-11"
             fill="#B32C50" />
          <path
             d="M16.28475,59.80125 C15.6769615,59.80125 15.1435962,59.3570192 15.0518654,58.7385577 C14.9511923,58.0583654 15.4179231,57.4251923 16.0981154,57.3239423 C16.1090769,57.3225 16.1382115,57.3181731 16.1491731,57.3167308 C16.8316731,57.2359615 17.4530192,57.7205769 17.5360962,58.4036538 C17.6183077,59.0824038 17.1383077,59.6997115 16.4618654,59.7885577 C16.4024423,59.7972115 16.3433077,59.80125 16.28475,59.80125"
             id="Fill-14"
             fill="#B32C50" />
          <path
             d="M13.1239615,13.8690288 C12.5161731,13.8690288 11.9828077,13.4247981 11.8910769,12.8063365 C11.7904038,12.1261442 12.2571346,11.4929712 12.9373269,11.3917212 C12.9482885,11.3902788 12.9774231,11.3859519 12.9883846,11.3845096 C13.6708846,11.3037404 14.2922308,11.7883558 14.3753077,12.4714327 C14.4575192,13.1501827 13.9775192,13.7674904 13.3010769,13.8563365 C13.2416538,13.8649904 13.1825192,13.8690288 13.1239615,13.8690288"
             id="Fill-16"
             fill="#B32C50" />
          <path
             d="M1.2465,25.5764135 C0.638711538,25.5764135 0.105346154,25.1321827 0.0136153846,24.5137212 C-0.0870576923,23.8335288 0.379673077,23.2003558 1.05986538,23.0991058 C1.07082692,23.0976635 1.09996154,23.0933365 1.11092308,23.0918942 C1.79342308,23.011125 2.41476923,23.4957404 2.49784615,24.1788173 C2.58005769,24.8575673 2.10005769,25.474875 1.42361538,25.5637212 C1.36419231,25.572375 1.30476923,25.5764135 1.2465,25.5764135"
             id="Fill-18"
             fill="#B32C50" />
          <path
             d="M64.2577788,30.9228173 C63.6499904,30.9228173 63.116625,30.4785865 63.0248942,29.8598365 C62.9242212,29.1799327 63.3909519,28.5467596 64.0711442,28.4455096 C64.0821058,28.4434904 64.1112404,28.4397404 64.1222019,28.4382981 C64.8047019,28.3575288 65.4260481,28.8421442 65.509125,29.5252212 C65.5913365,30.2039712 65.1113365,30.8212788 64.4348942,30.910125 C64.3754712,30.9187788 64.3160481,30.9228173 64.2577788,30.9228173"
             id="Fill-21"
             fill="#B32C50" />
          <path
             d="M42.7482981,59.7427788 C42.1405096,59.7427788 41.6071442,59.2985481 41.5154135,58.6800865 C41.4147404,57.9998942 41.8814712,57.3667212 42.5616635,57.2654712 C42.572625,57.2634519 42.6017596,57.2597019 42.6127212,57.2582596 C43.2952212,57.1774904 43.9165673,57.6621058 43.9996442,58.3451827 C44.0818558,59.0239327 43.6018558,59.6412404 42.9254135,59.7300865 C42.8659904,59.7387404 42.8068558,59.7427788 42.7482981,59.7427788"
             id="Fill-23"
             fill="#B32C50" />
          <path
             d="M56.3731154,27.5790577 C55.7653269,27.5790577 55.2319615,27.1348269 55.1402308,26.5163654 C55.0395577,25.8361731 55.5062885,25.203 56.1864808,25.10175 C56.1974423,25.1003077 56.2265769,25.0959808 56.2375385,25.0945385 C56.9200385,25.0137692 57.5413846,25.4983846 57.6244615,26.1814615 C57.7066731,26.8602115 57.2266731,27.4775192 56.5502308,27.5663654 C56.4908077,27.5750192 56.4313846,27.5790577 56.3731154,27.5790577"
             id="Fill-25"
             fill="#B32C50" />
          <path
             d="M6.79442308,45.9094904 C6.18663462,45.9094904 5.65326923,45.4652596 5.56153846,44.8465096 C5.46086538,44.1666058 5.92759615,43.5334327 6.60778846,43.4321827 C6.61875,43.4301635 6.64788462,43.4264135 6.65884615,43.4249712 C7.34134615,43.3442019 7.96269231,43.8288173 8.04576923,44.5118942 C8.12798077,45.1906442 7.64798077,45.8079519 6.97153846,45.8967981 C6.91211538,45.9054519 6.85298077,45.9094904 6.79442308,45.9094904"
             id="Fill-27"
             fill="#B32C50" />
          <path
             d="M7.16578846,23.5499423 C6.558,23.5499423 6.02463462,23.1057115 5.93290385,22.4869615 C5.83223077,21.8070577 6.29896154,21.1738846 6.97915385,21.0729231 C6.99011538,21.0706154 7.01925,21.0668654 7.03021154,21.0654231 C7.71271154,20.9846538 8.33405769,21.4692692 8.41713462,22.1523462 C8.49934615,22.8310962 8.01934615,23.4484038 7.34290385,23.53725 C7.28348077,23.5459038 7.22434615,23.5499423 7.16578846,23.5499423"
             id="Fill-29"
             fill="#B32C50" />
          <path
             d="M58.8801058,34.8764135 C58.2723173,34.8764135 57.7389519,34.4321827 57.6472212,33.8137212 C57.5465481,33.1335288 58.0132788,32.5003558 58.6934712,32.3991058 C58.7044327,32.3976635 58.7335673,32.3933365 58.7445288,32.3918942 C59.4270288,32.311125 60.048375,32.7957404 60.1314519,33.4788173 C60.2136635,34.1575673 59.7336635,34.774875 59.0572212,34.8637212 C58.9977981,34.872375 58.9386635,34.8764135 58.8801058,34.8764135"
             id="Fill-31"
             fill="#B32C50" />
        </g>
        <g
           id="Group-Copy-3"
           transform="translate(74,21.020564)"
           font-size="25"
           font-weight="bold"
           letter-spacing="0.293382625"
           line-spacing="34"
           style="font-weight:bold;font-size:25px;font-family:Tajawal-Bold, Tajawal;letter-spacing:0.29338261;fill:#ffffff">
          <text
             id="Yemeni-Archive">
            <tspan
               x="0"
               y="16.941936"
               id="tspan22">Yemeni Archive</tspan>
          </text>
        </g>
      </g>
    </g>
  </g>
</svg>
